%!PS-Adobe-2.0 EPSF-1.2
%%Creator: MATLAB, The MathWorks, Inc. Version 7.13.0.564 (R2011b). Operating System: Linux 3.11.0-18-generic #32~precise1-Ubuntu SMP Thu Feb 20 17:52:10 UTC 2014 x86_64.
%%Title: ./eps/biranda100/dot.eps
%%CreationDate: 03/19/2014  04:30:21
%%DocumentNeededFonts: Helvetica
%%DocumentProcessColors: Cyan Magenta Yellow Black
%%Pages: 1
%%BoundingBox:    58   199   546   589
%%EndComments

%%BeginProlog
% MathWorks dictionary
/MathWorks 160 dict begin
% definition operators
/bdef {bind def} bind def
/ldef {load def} bind def
/xdef {exch def} bdef
/xstore {exch store} bdef
% operator abbreviations
/c  /clip ldef
/cc /concat ldef
/cp /closepath ldef
/gr /grestore ldef
/gs /gsave ldef
/mt /moveto ldef
/np /newpath ldef
/cm /currentmatrix ldef
/sm /setmatrix ldef
/rm /rmoveto ldef
/rl /rlineto ldef
/s {show newpath} bdef
/sc {setcmykcolor} bdef
/sr /setrgbcolor ldef
/sg /setgray ldef
/w /setlinewidth ldef
/j /setlinejoin ldef
/cap /setlinecap ldef
/rc {rectclip} bdef
/rf {rectfill} bdef
% page state control
/pgsv () def
/bpage {/pgsv save def} bdef
/epage {pgsv restore} bdef
/bplot /gsave ldef
/eplot {stroke grestore} bdef
% orientation switch
/portraitMode 0 def /landscapeMode 1 def /rotateMode 2 def
% coordinate system mappings
/dpi2point 0 def
% font control
/FontSize 0 def
/FMS {/FontSize xstore findfont [FontSize 0 0 FontSize neg 0 0]
  makefont setfont} bdef
/reencode {exch dup where {pop load} {pop StandardEncoding} ifelse
  exch dup 3 1 roll findfont dup length dict begin
  { 1 index /FID ne {def}{pop pop} ifelse } forall
  /Encoding exch def currentdict end definefont pop} bdef
/isroman {findfont /CharStrings get /Agrave known} bdef
/FMSR {3 1 roll 1 index dup isroman {reencode} {pop pop} ifelse
  exch FMS} bdef
/csm {1 dpi2point div -1 dpi2point div scale neg translate
 dup landscapeMode eq {pop -90 rotate}
  {rotateMode eq {90 rotate} if} ifelse} bdef
% line types: solid, dotted, dashed, dotdash
/SO { [] 0 setdash } bdef
/DO { [.5 dpi2point mul 4 dpi2point mul] 0 setdash } bdef
/DA { [6 dpi2point mul] 0 setdash } bdef
/DD { [.5 dpi2point mul 4 dpi2point mul 6 dpi2point mul 4
  dpi2point mul] 0 setdash } bdef
% macros for lines and objects
/L {lineto stroke} bdef
/MP {3 1 roll moveto 1 sub {rlineto} repeat} bdef
/AP {{rlineto} repeat} bdef
/PDlw -1 def
/W {/PDlw currentlinewidth def setlinewidth} def
/PP {closepath eofill} bdef
/DP {closepath stroke} bdef
/MR {4 -2 roll moveto dup  0 exch rlineto exch 0 rlineto
  neg 0 exch rlineto closepath} bdef
/FR {MR stroke} bdef
/PR {MR fill} bdef
/L1i {{currentfile picstr readhexstring pop} image} bdef
/tMatrix matrix def
/MakeOval {newpath tMatrix currentmatrix pop translate scale
0 0 1 0 360 arc tMatrix setmatrix} bdef
/FO {MakeOval stroke} bdef
/PO {MakeOval fill} bdef
/PD {currentlinewidth 2 div 0 360 arc fill
   PDlw -1 eq not {PDlw w /PDlw -1 def} if} def
/FA {newpath tMatrix currentmatrix pop translate scale
  0 0 1 5 -2 roll arc tMatrix setmatrix stroke} bdef
/PA {newpath tMatrix currentmatrix pop	translate 0 0 moveto scale
  0 0 1 5 -2 roll arc closepath tMatrix setmatrix fill} bdef
/FAn {newpath tMatrix currentmatrix pop translate scale
  0 0 1 5 -2 roll arcn tMatrix setmatrix stroke} bdef
/PAn {newpath tMatrix currentmatrix pop translate 0 0 moveto scale
  0 0 1 5 -2 roll arcn closepath tMatrix setmatrix fill} bdef
/vradius 0 def /hradius 0 def /lry 0 def
/lrx 0 def /uly 0 def /ulx 0 def /rad 0 def
/MRR {/vradius xdef /hradius xdef /lry xdef /lrx xdef /uly xdef
  /ulx xdef newpath tMatrix currentmatrix pop ulx hradius add uly
  vradius add translate hradius vradius scale 0 0 1 180 270 arc 
  tMatrix setmatrix lrx hradius sub uly vradius add translate
  hradius vradius scale 0 0 1 270 360 arc tMatrix setmatrix
  lrx hradius sub lry vradius sub translate hradius vradius scale
  0 0 1 0 90 arc tMatrix setmatrix ulx hradius add lry vradius sub
  translate hradius vradius scale 0 0 1 90 180 arc tMatrix setmatrix
  closepath} bdef
/FRR {MRR stroke } bdef
/PRR {MRR fill } bdef
/MlrRR {/lry xdef /lrx xdef /uly xdef /ulx xdef /rad lry uly sub 2 div def
  newpath tMatrix currentmatrix pop ulx rad add uly rad add translate
  rad rad scale 0 0 1 90 270 arc tMatrix setmatrix lrx rad sub lry rad
  sub translate rad rad scale 0 0 1 270 90 arc tMatrix setmatrix
  closepath} bdef
/FlrRR {MlrRR stroke } bdef
/PlrRR {MlrRR fill } bdef
/MtbRR {/lry xdef /lrx xdef /uly xdef /ulx xdef /rad lrx ulx sub 2 div def
  newpath tMatrix currentmatrix pop ulx rad add uly rad add translate
  rad rad scale 0 0 1 180 360 arc tMatrix setmatrix lrx rad sub lry rad
  sub translate rad rad scale 0 0 1 0 180 arc tMatrix setmatrix
  closepath} bdef
/FtbRR {MtbRR stroke } bdef
/PtbRR {MtbRR fill } bdef
/stri 6 array def /dtri 6 array def
/smat 6 array def /dmat 6 array def
/tmat1 6 array def /tmat2 6 array def /dif 3 array def
/asub {/ind2 exch def /ind1 exch def dup dup
  ind1 get exch ind2 get sub exch } bdef
/tri_to_matrix {
  2 0 asub 3 1 asub 4 0 asub 5 1 asub
  dup 0 get exch 1 get 7 -1 roll astore } bdef
/compute_transform {
  dmat dtri tri_to_matrix tmat1 invertmatrix 
  smat stri tri_to_matrix tmat2 concatmatrix } bdef
/ds {stri astore pop} bdef
/dt {dtri astore pop} bdef
/db {2 copy /cols xdef /rows xdef mul dup string
  currentfile exch readhexstring pop
  /bmap xdef pop pop} bdef
/it {gs np dtri aload pop moveto lineto lineto cp c
  cols rows 8 compute_transform 
  {bmap} image gr}bdef
/il {newpath moveto lineto stroke}bdef
currentdict end def
%%EndProlog

%%BeginSetup
MathWorks begin

0 cap

end
%%EndSetup

%%Page: 1 1
%%BeginPageSetup
%%PageBoundingBox:    58   199   546   589
MathWorks begin
bpage
%%EndPageSetup

%%BeginObject: obj1
bplot

/dpi2point 12 def
portraitMode 0216 7344 csm

  480   268  5857  4687 MR c np
85 dict begin %Colortable dictionary
/c0 { 0.000000 0.000000 0.000000 sr} bdef
/c1 { 1.000000 1.000000 1.000000 sr} bdef
/c2 { 0.900000 0.000000 0.000000 sr} bdef
/c3 { 0.000000 0.820000 0.000000 sr} bdef
/c4 { 0.000000 0.000000 0.800000 sr} bdef
/c5 { 0.910000 0.820000 0.320000 sr} bdef
/c6 { 1.000000 0.260000 0.820000 sr} bdef
/c7 { 0.000000 0.820000 0.820000 sr} bdef
c0
1 j
1 sg
   0    0 6913 5186 PR
6 w
0 4226 5356 0 0 -4226 899 4615 4 MP
PP
-5356 0 0 4226 5356 0 0 -4226 899 4615 5 MP stroke
4 w
DO
SO
6 w
0 sg
 899 4615 mt 6255 4615 L
 899 4615 mt  899  389 L
 899 4615 mt  899 4561 L
%%IncludeResource: font Helvetica
/Helvetica /ISOLatin1Encoding 120 FMSR

 866 4760 mt 
(0) s
1434 4615 mt 1434 4561 L
1351 4760 mt 
(0.1) s
1970 4615 mt 1970 4561 L
1887 4760 mt 
(0.2) s
2505 4615 mt 2505 4561 L
2422 4760 mt 
(0.3) s
3041 4615 mt 3041 4561 L
2958 4760 mt 
(0.4) s
3577 4615 mt 3577 4561 L
3494 4760 mt 
(0.5) s
4112 4615 mt 4112 4561 L
4029 4760 mt 
(0.6) s
4648 4615 mt 4648 4561 L
4565 4760 mt 
(0.7) s
5183 4615 mt 5183 4561 L
5100 4760 mt 
(0.8) s
5719 4615 mt 5719 4561 L
5636 4760 mt 
(0.9) s
6255 4615 mt 6255 4561 L
6222 4760 mt 
(1) s
 899 4615 mt  952 4615 L
 798 4659 mt 
(0) s
 899 4192 mt  952 4192 L
 698 4236 mt 
(0.1) s
 899 3769 mt  952 3769 L
 698 3813 mt 
(0.2) s
 899 3347 mt  952 3347 L
 698 3391 mt 
(0.3) s
 899 2924 mt  952 2924 L
 698 2968 mt 
(0.4) s
 899 2502 mt  952 2502 L
 698 2546 mt 
(0.5) s
 899 2079 mt  952 2079 L
 698 2123 mt 
(0.6) s
 899 1656 mt  952 1656 L
 698 1700 mt 
(0.7) s
 899 1234 mt  952 1234 L
 698 1278 mt 
(0.8) s
 899  811 mt  952  811 L
 698  855 mt 
(0.9) s
 899  389 mt  952  389 L
 798  433 mt 
(1) s
gs 899 389 5357 4227 MR c np
1434 4192 PD
gs 1361 4119 147 147 MR c np
  36   36 1434 4192 FO
gr

1434 3910 PD
gs 1361 3837 147 147 MR c np
  36   36 1434 3910 FO
gr

64 -114 64 190 962 4086 3 MP stroke
gr

gs 889 4013 275 337 MR c np
  36   36  962 4086 FO
  36   36 1026 4276 FO
  36   36 1090 4162 FO
gr

gs 899 389 5357 4227 MR c np
298 -411 1196 4086 2 MP stroke
gs 1123 3602 445 558 MR c np
  36   36 1196 4086 FO
  36   36 1494 3675 FO
gr

119 366 1018 3910 2 MP stroke
gs 945 3837 266 513 MR c np
  36   36 1018 3910 FO
  36   36 1137 4276 FO
gr

1256 4514 PD
gs 1183 4441 147 147 MR c np
  36   36 1256 4514 FO
gr

974 4422 PD
gs 901 4349 147 147 MR c np
  36   36  974 4422 FO
gr

1090 4497 PD
gs 1017 4424 147 147 MR c np
  36   36 1090 4497 FO
gr

944 4289 PD
gr

gs 871 4216 147 147 MR c np
  36   36  944 4289 FO
gr

gs 899 389 5357 4227 MR c np
1196 4392 PD
gs 1123 4319 147 147 MR c np
  36   36 1196 4392 FO
gr

1006 4392 PD
gs 933 4319 147 147 MR c np
  36   36 1006 4392 FO
gr

46 -235 944 3910 2 MP stroke
gr

gs 871 3602 193 382 MR c np
  36   36  944 3910 FO
  36   36  990 3675 FO
gr

gs 899 389 5357 4227 MR c np
27 221 925 4192 2 MP stroke
gr

gs 852 4119 174 368 MR c np
  36   36  925 4192 FO
  36   36  952 4413 FO
gr

gs 899 389 5357 4227 MR c np
1180 3206 PD
gs 1107 3133 147 147 MR c np
  36   36 1180 3206 FO
gr

1494 4192 PD
gs 1421 4119 147 147 MR c np
  36   36 1494 4192 FO
gr

1180 389 PD
gr

gs 1107 316 147 147 MR c np
  36   36 1180  389 FO
gr

gs 899 389 5357 4227 MR c np
1105 4230 PD
gs 1032 4157 147 147 MR c np
  36   36 1105 4230 FO
gr

20 940 20 1192 20 -282 20 -423 20 0 918 2502 6 MP stroke
gr

gs 845 1724 247 2279 MR c np
  36   36  918 2502 FO
  36   36  938 2502 FO
  36   36  958 2079 FO
  36   36  978 1797 FO
  36   36  998 2989 FO
  36   36 1018 3929 FO
gr

gs 899 389 5357 4227 MR c np
2684 3558 PD
gs 2611 3485 147 147 MR c np
  36   36 2684 3558 FO
gr

gr

3409 4903 mt 
(Recall) s
 616 2750 mt  -90 rotate
(Precision) s
90 rotate

end %%Color Dict

eplot
%%EndObject

epage
end

showpage

%%Trailer
%%EOF
