%!PS-Adobe-3.0 EPSF-3.0
%%Creator: MATLAB, The MathWorks, Inc. Version 7.13.0.564 (R2011b). Operating System: Linux 3.11.0-18-generic #32~precise1-Ubuntu SMP Thu Feb 20 17:52:10 UTC 2014 x86_64.
%%Title: /home/shcyril/Dropbox/fig/mean.eps
%%CreationDate: 03/19/2014  04:55:05
%%DocumentNeededFonts: Helvetica
%%DocumentProcessColors: Cyan Magenta Yellow Black
%%LanguageLevel: 2
%%Pages: 1
%%BoundingBox:   -52   261   666   529
%%EndComments

%%BeginProlog
% MathWorks dictionary
/MathWorks 160 dict begin
% definition operators
/bdef {bind def} bind def
/ldef {load def} bind def
/xdef {exch def} bdef
/xstore {exch store} bdef
% operator abbreviations
/c  /clip ldef
/cc /concat ldef
/cp /closepath ldef
/gr /grestore ldef
/gs /gsave ldef
/mt /moveto ldef
/np /newpath ldef
/cm /currentmatrix ldef
/sm /setmatrix ldef
/rm /rmoveto ldef
/rl /rlineto ldef
/s {show newpath} bdef
/sc {setcmykcolor} bdef
/sr /setrgbcolor ldef
/sg /setgray ldef
/w /setlinewidth ldef
/j /setlinejoin ldef
/cap /setlinecap ldef
/rc {rectclip} bdef
/rf {rectfill} bdef
% page state control
/pgsv () def
/bpage {/pgsv save def} bdef
/epage {pgsv restore} bdef
/bplot /gsave ldef
/eplot {stroke grestore} bdef
% orientation switch
/portraitMode 0 def /landscapeMode 1 def /rotateMode 2 def
% coordinate system mappings
/dpi2point 0 def
% font control
/FontSize 0 def
/FMS {/FontSize xstore findfont [FontSize 0 0 FontSize neg 0 0]
  makefont setfont} bdef
/reencode {exch dup where {pop load} {pop StandardEncoding} ifelse
  exch dup 3 1 roll findfont dup length dict begin
  { 1 index /FID ne {def}{pop pop} ifelse } forall
  /Encoding exch def currentdict end definefont pop} bdef
/isroman {findfont /CharStrings get /Agrave known} bdef
/FMSR {3 1 roll 1 index dup isroman {reencode} {pop pop} ifelse
  exch FMS} bdef
/csm {1 dpi2point div -1 dpi2point div scale neg translate
 dup landscapeMode eq {pop -90 rotate}
  {rotateMode eq {90 rotate} if} ifelse} bdef
% line types: solid, dotted, dashed, dotdash
/SO { [] 0 setdash } bdef
/DO { [.5 dpi2point mul 4 dpi2point mul] 0 setdash } bdef
/DA { [6 dpi2point mul] 0 setdash } bdef
/DD { [.5 dpi2point mul 4 dpi2point mul 6 dpi2point mul 4
  dpi2point mul] 0 setdash } bdef
% macros for lines and objects
/L {lineto stroke} bdef
/MP {3 1 roll moveto 1 sub {rlineto} repeat} bdef
/AP {{rlineto} repeat} bdef
/PDlw -1 def
/W {/PDlw currentlinewidth def setlinewidth} def
/PP {closepath eofill} bdef
/DP {closepath stroke} bdef
/MR {4 -2 roll moveto dup  0 exch rlineto exch 0 rlineto
  neg 0 exch rlineto closepath} bdef
/FR {MR stroke} bdef
/PR {MR fill} bdef
/L1i {{currentfile picstr readhexstring pop} image} bdef
/tMatrix matrix def
/MakeOval {newpath tMatrix currentmatrix pop translate scale
0 0 1 0 360 arc tMatrix setmatrix} bdef
/FO {MakeOval stroke} bdef
/PO {MakeOval fill} bdef
/PD {currentlinewidth 2 div 0 360 arc fill
   PDlw -1 eq not {PDlw w /PDlw -1 def} if} def
/FA {newpath tMatrix currentmatrix pop translate scale
  0 0 1 5 -2 roll arc tMatrix setmatrix stroke} bdef
/PA {newpath tMatrix currentmatrix pop	translate 0 0 moveto scale
  0 0 1 5 -2 roll arc closepath tMatrix setmatrix fill} bdef
/FAn {newpath tMatrix currentmatrix pop translate scale
  0 0 1 5 -2 roll arcn tMatrix setmatrix stroke} bdef
/PAn {newpath tMatrix currentmatrix pop translate 0 0 moveto scale
  0 0 1 5 -2 roll arcn closepath tMatrix setmatrix fill} bdef
/vradius 0 def /hradius 0 def /lry 0 def
/lrx 0 def /uly 0 def /ulx 0 def /rad 0 def
/MRR {/vradius xdef /hradius xdef /lry xdef /lrx xdef /uly xdef
  /ulx xdef newpath tMatrix currentmatrix pop ulx hradius add uly
  vradius add translate hradius vradius scale 0 0 1 180 270 arc 
  tMatrix setmatrix lrx hradius sub uly vradius add translate
  hradius vradius scale 0 0 1 270 360 arc tMatrix setmatrix
  lrx hradius sub lry vradius sub translate hradius vradius scale
  0 0 1 0 90 arc tMatrix setmatrix ulx hradius add lry vradius sub
  translate hradius vradius scale 0 0 1 90 180 arc tMatrix setmatrix
  closepath} bdef
/FRR {MRR stroke } bdef
/PRR {MRR fill } bdef
/MlrRR {/lry xdef /lrx xdef /uly xdef /ulx xdef /rad lry uly sub 2 div def
  newpath tMatrix currentmatrix pop ulx rad add uly rad add translate
  rad rad scale 0 0 1 90 270 arc tMatrix setmatrix lrx rad sub lry rad
  sub translate rad rad scale 0 0 1 270 90 arc tMatrix setmatrix
  closepath} bdef
/FlrRR {MlrRR stroke } bdef
/PlrRR {MlrRR fill } bdef
/MtbRR {/lry xdef /lrx xdef /uly xdef /ulx xdef /rad lrx ulx sub 2 div def
  newpath tMatrix currentmatrix pop ulx rad add uly rad add translate
  rad rad scale 0 0 1 180 360 arc tMatrix setmatrix lrx rad sub lry rad
  sub translate rad rad scale 0 0 1 0 180 arc tMatrix setmatrix
  closepath} bdef
/FtbRR {MtbRR stroke } bdef
/PtbRR {MtbRR fill } bdef
/stri 6 array def /dtri 6 array def
/smat 6 array def /dmat 6 array def
/tmat1 6 array def /tmat2 6 array def /dif 3 array def
/asub {/ind2 exch def /ind1 exch def dup dup
  ind1 get exch ind2 get sub exch } bdef
/tri_to_matrix {
  2 0 asub 3 1 asub 4 0 asub 5 1 asub
  dup 0 get exch 1 get 7 -1 roll astore } bdef
/compute_transform {
  dmat dtri tri_to_matrix tmat1 invertmatrix 
  smat stri tri_to_matrix tmat2 concatmatrix } bdef
/ds {stri astore pop} bdef
/dt {dtri astore pop} bdef
/db {2 copy /cols xdef /rows xdef mul dup 3 mul string
  currentfile 
  3 index 0 eq {/ASCIIHexDecode filter}
  {/ASCII85Decode filter 3 index 2 eq {/RunLengthDecode filter} if }
  ifelse exch readstring pop
  dup 0 3 index getinterval /rbmap xdef
  dup 2 index dup getinterval /gbmap xdef
  1 index dup 2 mul exch getinterval /bbmap xdef pop pop}bdef
/it {gs np dtri aload pop moveto lineto lineto cp c
  cols rows 8 compute_transform 
  rbmap gbmap bbmap true 3 colorimage gr}bdef
/il {newpath moveto lineto stroke}bdef
currentdict end def
%%EndProlog

%%BeginSetup
MathWorks begin

0 cap

end
%%EndSetup

%%Page: 1 1
%%BeginPageSetup
%%PageBoundingBox:   -52   261   666   529
MathWorks begin
bpage
%%EndPageSetup

%%BeginObject: obj1
bplot

/dpi2point 12 def
portraitMode -0624 6348 csm

    0     0  8620  3207 rc
86 dict begin %Colortable dictionary
/c0 { 0.000000 0.000000 0.000000 sr} bdef
/c1 { 1.000000 1.000000 1.000000 sr} bdef
/c2 { 0.900000 0.000000 0.000000 sr} bdef
/c3 { 0.000000 0.820000 0.000000 sr} bdef
/c4 { 0.000000 0.000000 0.800000 sr} bdef
/c5 { 0.910000 0.820000 0.320000 sr} bdef
/c6 { 1.000000 0.260000 0.820000 sr} bdef
/c7 { 0.000000 0.820000 0.820000 sr} bdef
c0
1 j
1 sg
   0    0 8621 3208 rf
6 w
0 2613 6680 0 0 -2613 1121 2854 4 MP
PP
-6680 0 0 2613 6680 0 0 -2613 1121 2854 5 MP stroke
4 w
DO
SO
6 w
0 sg
1121 2854 mt 7801 2854 L
1121  241 mt 7801  241 L
1121 2854 mt 1121  241 L
7801 2854 mt 7801  241 L
1121 2854 mt 7801 2854 L
1121 2854 mt 1121  241 L
1121 2854 mt 1121 2787 L
1121  241 mt 1121  307 L
%%IncludeResource: font Helvetica
/Helvetica /ISOLatin1Encoding 120 FMSR

1088 2999 mt 
(0) s
1789 2854 mt 1789 2787 L
1789  241 mt 1789  307 L
1706 2999 mt 
(0.1) s
2457 2854 mt 2457 2787 L
2457  241 mt 2457  307 L
2374 2999 mt 
(0.2) s
3125 2854 mt 3125 2787 L
3125  241 mt 3125  307 L
3042 2999 mt 
(0.3) s
3793 2854 mt 3793 2787 L
3793  241 mt 3793  307 L
3710 2999 mt 
(0.4) s
4461 2854 mt 4461 2787 L
4461  241 mt 4461  307 L
4378 2999 mt 
(0.5) s
5129 2854 mt 5129 2787 L
5129  241 mt 5129  307 L
5046 2999 mt 
(0.6) s
5797 2854 mt 5797 2787 L
5797  241 mt 5797  307 L
5714 2999 mt 
(0.7) s
6465 2854 mt 6465 2787 L
6465  241 mt 6465  307 L
6382 2999 mt 
(0.8) s
7133 2854 mt 7133 2787 L
7133  241 mt 7133  307 L
7050 2999 mt 
(0.9) s
7801 2854 mt 7801 2787 L
7801  241 mt 7801  307 L
7768 2999 mt 
(1) s
1121 2854 mt 1187 2854 L
7801 2854 mt 7734 2854 L
1020 2898 mt 
(0) s
1121 2592 mt 1187 2592 L
7801 2592 mt 7734 2592 L
 920 2636 mt 
(0.1) s
1121 2331 mt 1187 2331 L
7801 2331 mt 7734 2331 L
 920 2375 mt 
(0.2) s
1121 2070 mt 1187 2070 L
7801 2070 mt 7734 2070 L
 920 2114 mt 
(0.3) s
1121 1808 mt 1187 1808 L
7801 1808 mt 7734 1808 L
 920 1852 mt 
(0.4) s
1121 1547 mt 1187 1547 L
7801 1547 mt 7734 1547 L
 920 1591 mt 
(0.5) s
1121 1286 mt 1187 1286 L
7801 1286 mt 7734 1286 L
 920 1330 mt 
(0.6) s
1121 1024 mt 1187 1024 L
7801 1024 mt 7734 1024 L
 920 1068 mt 
(0.7) s
1121  763 mt 1187  763 L
7801  763 mt 7734  763 L
 920  807 mt 
(0.8) s
1121  502 mt 1187  502 L
7801  502 mt 7734  502 L
 920  546 mt 
(0.9) s
1121  241 mt 1187  241 L
7801  241 mt 7734  241 L
1020  285 mt 
(1) s
1121 2854 mt 7801 2854 L
1121  241 mt 7801  241 L
1121 2854 mt 1121  241 L
7801 2854 mt 7801  241 L
gs 1121 241 6681 2614 rc
936 510 133 -413 201 409 66 -441 201 421 133 -422 201 180 334 -200 
267 348 67 44 133 -351 67 108 67 -43 134 114 66 20 67 5 
67 58 67 10 133 -336 67 312 67 -48 67 -98 67 -50 66 33 
67 107 67 -144 67 58 67 87 66 -213 67 131 67 -82 67 25 
67 41 66 103 67 -247 67 335 67 -187 67 9 66 -35 67 -48 
67 40 67 32 67 111 66 -234 67 117 67 -32 67 30 67 101 
66 -195 67 63 67 77 67 -107 67 87 66 -66 67 65 67 -16 
67 -9 67 88 66 -44 67 7 67 -30 67 10 67 -1 66 -31 
67 -25 67 -2 67 -30 67 -11 1187 2692 69 MP stroke
gr

gs 1114 2214 6761 657 rc
1151 2692 mt 1223 2692 L
1187 2656 mt 1187 2728 L
1218 2681 mt 1290 2681 L
1254 2645 mt 1254 2717 L
1285 2651 mt 1357 2651 L
1321 2615 mt 1321 2687 L
1352 2649 mt 1424 2649 L
1388 2613 mt 1388 2685 L
1419 2624 mt 1491 2624 L
1455 2588 mt 1455 2660 L
1485 2593 mt 1557 2593 L
1521 2557 mt 1521 2629 L
1552 2592 mt 1624 2592 L
1588 2556 mt 1588 2628 L
1619 2602 mt 1691 2602 L
1655 2566 mt 1655 2638 L
1686 2572 mt 1758 2572 L
1722 2536 mt 1722 2608 L
1753 2579 mt 1825 2579 L
1789 2543 mt 1789 2615 L
1819 2535 mt 1891 2535 L
1855 2499 mt 1855 2571 L
1886 2623 mt 1958 2623 L
1922 2587 mt 1922 2659 L
1953 2614 mt 2025 2614 L
1989 2578 mt 1989 2650 L
2020 2598 mt 2092 2598 L
2056 2562 mt 2056 2634 L
2087 2663 mt 2159 2663 L
2123 2627 mt 2123 2699 L
2153 2597 mt 2225 2597 L
2189 2561 mt 2189 2633 L
2220 2684 mt 2292 2684 L
2256 2648 mt 2256 2720 L
2287 2577 mt 2359 2577 L
2323 2541 mt 2323 2613 L
2354 2654 mt 2426 2654 L
2390 2618 mt 2390 2690 L
2421 2717 mt 2493 2717 L
2457 2681 mt 2457 2753 L
2487 2522 mt 2559 2522 L
2523 2486 mt 2523 2558 L
2554 2623 mt 2626 2623 L
2590 2587 mt 2590 2659 L
2621 2653 mt 2693 2653 L
2657 2617 mt 2657 2689 L
2688 2621 mt 2760 2621 L
2724 2585 mt 2724 2657 L
2755 2738 mt 2827 2738 L
2791 2702 mt 2791 2774 L
2821 2504 mt 2893 2504 L
2857 2468 mt 2857 2540 L
2888 2615 mt 2960 2615 L
2924 2579 mt 2924 2651 L
2955 2647 mt 3027 2647 L
2991 2611 mt 2991 2683 L
3022 2687 mt 3094 2687 L
3058 2651 mt 3058 2723 L
3089 2639 mt 3161 2639 L
3125 2603 mt 3125 2675 L
3155 2604 mt 3227 2604 L
3191 2568 mt 3191 2640 L
3222 2613 mt 3294 2613 L
3258 2577 mt 3258 2649 L
3289 2426 mt 3361 2426 L
3325 2390 mt 3325 2462 L
3356 2761 mt 3428 2761 L
3392 2725 mt 3392 2797 L
3423 2514 mt 3495 2514 L
3459 2478 mt 3459 2550 L
3489 2617 mt 3561 2617 L
3525 2581 mt 3525 2653 L
3556 2658 mt 3628 2658 L
3592 2622 mt 3592 2694 L
3623 2683 mt 3695 2683 L
3659 2647 mt 3659 2719 L
3690 2601 mt 3762 2601 L
3726 2565 mt 3726 2637 L
3757 2732 mt 3829 2732 L
3793 2696 mt 3793 2768 L
3823 2519 mt 3895 2519 L
3859 2483 mt 3859 2555 L
3890 2606 mt 3962 2606 L
3926 2570 mt 3926 2642 L
3957 2664 mt 4029 2664 L
3993 2628 mt 3993 2700 L
4024 2520 mt 4096 2520 L
4060 2484 mt 4060 2556 L
4091 2627 mt 4163 2627 L
4127 2591 mt 4127 2663 L
4157 2660 mt 4229 2660 L
4193 2624 mt 4193 2696 L
4224 2610 mt 4296 2610 L
4260 2574 mt 4260 2646 L
4291 2512 mt 4363 2512 L
4327 2476 mt 4327 2548 L
4358 2464 mt 4430 2464 L
4394 2428 mt 4394 2500 L
4425 2776 mt 4497 2776 L
4461 2740 mt 4461 2812 L
4558 2440 mt 4630 2440 L
4594 2404 mt 4594 2476 L
4625 2450 mt 4697 2450 L
4661 2414 mt 4661 2486 L
4692 2508 mt 4764 2508 L
4728 2472 mt 4728 2544 L
4759 2513 mt 4831 2513 L
4795 2477 mt 4795 2549 L
4825 2533 mt 4897 2533 L
4861 2497 mt 4861 2569 L
4959 2647 mt 5031 2647 L
4995 2611 mt 4995 2683 L
5026 2604 mt 5098 2604 L
5062 2568 mt 5062 2640 L
5093 2712 mt 5165 2712 L
5129 2676 mt 5129 2748 L
5226 2361 mt 5298 2361 L
5262 2325 mt 5262 2397 L
5293 2405 mt 5365 2405 L
5329 2369 mt 5329 2441 L
5560 2753 mt 5632 2753 L
5596 2717 mt 5596 2789 L
5894 2553 mt 5966 2553 L
5930 2517 mt 5930 2589 L
6095 2733 mt 6167 2733 L
6131 2697 mt 6131 2769 L
6228 2311 mt 6300 2311 L
6264 2275 mt 6264 2347 L
6429 2732 mt 6501 2732 L
6465 2696 mt 6465 2768 L
6495 2291 mt 6567 2291 L
6531 2255 mt 6531 2327 L
6696 2700 mt 6768 2700 L
6732 2664 mt 6732 2736 L
6829 2287 mt 6901 2287 L
6865 2251 mt 6865 2323 L
7765 2797 mt 7837 2797 L
7801 2761 mt 7801 2833 L
1162 2667 mt 1212 2717 L
1212 2667 mt 1162 2717 L
1229 2656 mt 1279 2706 L
1279 2656 mt 1229 2706 L
1296 2626 mt 1346 2676 L
1346 2626 mt 1296 2676 L
1363 2624 mt 1413 2674 L
1413 2624 mt 1363 2674 L
1430 2599 mt 1480 2649 L
1480 2599 mt 1430 2649 L
1496 2568 mt 1546 2618 L
1546 2568 mt 1496 2618 L
1563 2567 mt 1613 2617 L
1613 2567 mt 1563 2617 L
1630 2577 mt 1680 2627 L
1680 2577 mt 1630 2627 L
1697 2547 mt 1747 2597 L
1747 2547 mt 1697 2597 L
1764 2554 mt 1814 2604 L
1814 2554 mt 1764 2604 L
1830 2510 mt 1880 2560 L
1880 2510 mt 1830 2560 L
1897 2598 mt 1947 2648 L
1947 2598 mt 1897 2648 L
1964 2589 mt 2014 2639 L
2014 2589 mt 1964 2639 L
2031 2573 mt 2081 2623 L
2081 2573 mt 2031 2623 L
2098 2638 mt 2148 2688 L
2148 2638 mt 2098 2688 L
2164 2572 mt 2214 2622 L
2214 2572 mt 2164 2622 L
2231 2659 mt 2281 2709 L
2281 2659 mt 2231 2709 L
2298 2552 mt 2348 2602 L
2348 2552 mt 2298 2602 L
2365 2629 mt 2415 2679 L
2415 2629 mt 2365 2679 L
2432 2692 mt 2482 2742 L
2482 2692 mt 2432 2742 L
2498 2497 mt 2548 2547 L
2548 2497 mt 2498 2547 L
2565 2598 mt 2615 2648 L
2615 2598 mt 2565 2648 L
2632 2628 mt 2682 2678 L
2682 2628 mt 2632 2678 L
2699 2596 mt 2749 2646 L
2749 2596 mt 2699 2646 L
2766 2713 mt 2816 2763 L
2816 2713 mt 2766 2763 L
2832 2479 mt 2882 2529 L
2882 2479 mt 2832 2529 L
2899 2590 mt 2949 2640 L
2949 2590 mt 2899 2640 L
2966 2622 mt 3016 2672 L
3016 2622 mt 2966 2672 L
3033 2662 mt 3083 2712 L
3083 2662 mt 3033 2712 L
3100 2614 mt 3150 2664 L
3150 2614 mt 3100 2664 L
3166 2579 mt 3216 2629 L
3216 2579 mt 3166 2629 L
3233 2588 mt 3283 2638 L
3283 2588 mt 3233 2638 L
3300 2401 mt 3350 2451 L
3350 2401 mt 3300 2451 L
3367 2736 mt 3417 2786 L
3417 2736 mt 3367 2786 L
3434 2489 mt 3484 2539 L
3484 2489 mt 3434 2539 L
3500 2592 mt 3550 2642 L
3550 2592 mt 3500 2642 L
3567 2633 mt 3617 2683 L
3617 2633 mt 3567 2683 L
3634 2658 mt 3684 2708 L
3684 2658 mt 3634 2708 L
3701 2576 mt 3751 2626 L
3751 2576 mt 3701 2626 L
3768 2707 mt 3818 2757 L
3818 2707 mt 3768 2757 L
3834 2494 mt 3884 2544 L
3884 2494 mt 3834 2544 L
3901 2581 mt 3951 2631 L
3951 2581 mt 3901 2631 L
3968 2639 mt 4018 2689 L
4018 2639 mt 3968 2689 L
4035 2495 mt 4085 2545 L
4085 2495 mt 4035 2545 L
4102 2602 mt 4152 2652 L
4152 2602 mt 4102 2652 L
4168 2635 mt 4218 2685 L
4218 2635 mt 4168 2685 L
4235 2585 mt 4285 2635 L
4285 2585 mt 4235 2635 L
4302 2487 mt 4352 2537 L
4352 2487 mt 4302 2537 L
4369 2439 mt 4419 2489 L
4419 2439 mt 4369 2489 L
4436 2751 mt 4486 2801 L
4486 2751 mt 4436 2801 L
4569 2415 mt 4619 2465 L
4619 2415 mt 4569 2465 L
4636 2425 mt 4686 2475 L
4686 2425 mt 4636 2475 L
4703 2483 mt 4753 2533 L
4753 2483 mt 4703 2533 L
4770 2488 mt 4820 2538 L
4820 2488 mt 4770 2538 L
4836 2508 mt 4886 2558 L
4886 2508 mt 4836 2558 L
4970 2622 mt 5020 2672 L
5020 2622 mt 4970 2672 L
5037 2579 mt 5087 2629 L
5087 2579 mt 5037 2629 L
5104 2687 mt 5154 2737 L
5154 2687 mt 5104 2737 L
5237 2336 mt 5287 2386 L
5287 2336 mt 5237 2386 L
5304 2380 mt 5354 2430 L
5354 2380 mt 5304 2430 L
5571 2728 mt 5621 2778 L
5621 2728 mt 5571 2778 L
5905 2528 mt 5955 2578 L
5955 2528 mt 5905 2578 L
6106 2708 mt 6156 2758 L
6156 2708 mt 6106 2758 L
6239 2286 mt 6289 2336 L
6289 2286 mt 6239 2336 L
6440 2707 mt 6490 2757 L
6490 2707 mt 6440 2757 L
6506 2266 mt 6556 2316 L
6556 2266 mt 6506 2316 L
6707 2675 mt 6757 2725 L
6757 2675 mt 6707 2725 L
6840 2262 mt 6890 2312 L
6890 2262 mt 6840 2312 L
7776 2772 mt 7826 2822 L
7826 2772 mt 7776 2822 L
gr

gs 1121 241 6681 2614 rc
gr

4293 3142 mt 
(Recall) s
 838 1795 mt  -90 rotate
(Precision) s
90 rotate
gs 1121 241 6681 2614 rc
/c8 { 0.000000 0.000000 1.000000 sr} bdef
c8
1470 -233 334 -358 67 925 66 -778 67 -13 67 105 67 481 67 -177 
1187 2248 9 MP stroke
gr

c8
gs 1114 1793 2352 1072 rc
0 j
-71 41 0 -82 71 41 1140 2248 4 MP
DP
-71 41 0 -82 71 41 1207 2071 4 MP
DP
-71 41 0 -82 71 41 1274 2552 4 MP
DP
-71 41 0 -82 71 41 1341 2657 4 MP
DP
-71 41 0 -82 71 41 1408 2644 4 MP
DP
-71 41 0 -82 71 41 1474 1866 4 MP
DP
-71 41 0 -82 71 41 1541 2791 4 MP
DP
-71 41 0 -82 71 41 1875 2433 4 MP
DP
-71 41 0 -82 71 41 3345 2200 4 MP
DP
gr

gs 1121 241 6681 2614 rc
/c9 { 1.000000 0.000000 0.000000 sr} bdef
c9
134 -83 67 461 1187 2326 3 MP stroke
gr

c9
gs 1114 2253 348 608 rc
1162 2301 mt 1212 2351 L
1212 2301 mt 1162 2351 L
1229 2762 mt 1279 2812 L
1279 2762 mt 1229 2812 L
1363 2679 mt 1413 2729 L
1413 2679 mt 1363 2729 L
gr

gs 1121 241 6681 2614 rc
/c10 { 1.000000 0.000000 1.000000 sr} bdef
c10
3340 115 468 -6 601 -653 334 1306 267 -620 334 -746 201 731 133 -187 
134 70 67 172 133 -49 67 -24 67 -308 67 404 67 190 66 -589 
67 31 67 139 67 126 67 113 1187 788 21 MP stroke
gr

c10
gs 1114 168 6761 1513 rc
0 j
41 71 -82 0 41 -71 1187 835 4 MP
DP
41 71 -82 0 41 -71 1254 948 4 MP
DP
41 71 -82 0 41 -71 1321 1074 4 MP
DP
41 71 -82 0 41 -71 1388 1213 4 MP
DP
41 71 -82 0 41 -71 1455 1244 4 MP
DP
41 71 -82 0 41 -71 1521 655 4 MP
DP
41 71 -82 0 41 -71 1588 845 4 MP
DP
41 71 -82 0 41 -71 1655 1249 4 MP
DP
41 71 -82 0 41 -71 1722 941 4 MP
DP
41 71 -82 0 41 -71 1789 917 4 MP
DP
41 71 -82 0 41 -71 1922 868 4 MP
DP
41 71 -82 0 41 -71 1989 1040 4 MP
DP
41 71 -82 0 41 -71 2123 1110 4 MP
DP
41 71 -82 0 41 -71 2256 923 4 MP
DP
41 71 -82 0 41 -71 2457 1654 4 MP
DP
41 71 -82 0 41 -71 2791 908 4 MP
DP
41 71 -82 0 41 -71 3058 288 4 MP
DP
41 71 -82 0 41 -71 3392 1594 4 MP
DP
41 71 -82 0 41 -71 3993 941 4 MP
DP
41 71 -82 0 41 -71 4461 935 4 MP
DP
41 71 -82 0 41 -71 7801 1050 4 MP
DP
gr

gs 1121 241 6681 2614 rc
gr

0 sg
1104 2897 mt 
( ) s
7785  283 mt 
( ) s
1 sg
0 642 3403 0 0 -642 4017 1934 4 MP
PP
-3403 0 0 642 3403 0 0 -642 4017 1934 5 MP stroke
4 w
DO
SO
6 w
0 sg
4017 1934 mt 7420 1934 L
4017 1292 mt 7420 1292 L
4017 1934 mt 4017 1292 L
7420 1934 mt 7420 1292 L
4017 1934 mt 7420 1934 L
4017 1934 mt 4017 1292 L
4017 1934 mt 7420 1934 L
4017 1292 mt 7420 1292 L
4017 1934 mt 4017 1292 L
7420 1934 mt 7420 1292 L
4485 1430 mt 
(proposed system with 100 aritcles) s
gs 4017 1292 3404 643 rc
360 0 4088 1388 2 MP stroke
gs 4195 1315 147 147 rc
4232 1388 mt 4304 1388 L
4268 1352 mt 4268 1424 L
4243 1363 mt 4293 1413 L
4293 1363 mt 4243 1413 L
gr

gr

4485 1580 mt 
(the bigram model with 100 randomly chosen articles) s
gs 4017 1292 3404 643 rc
c8
360 0 4088 1538 2 MP stroke
gs 4195 1465 147 147 rc
0 j
-71 41 0 -82 71 41 4221 1538 4 MP
DP
gr

gr

c8
0 sg
4485 1731 mt 
(item-based CF with 100 articles) s
gs 4017 1292 3404 643 rc
c9
360 0 4088 1688 2 MP stroke
gs 4195 1615 147 147 rc
4243 1663 mt 4293 1713 L
4293 1663 mt 4243 1713 L
gr

gr

c9
0 sg
4485 1881 mt 
(user-based CF with 100 randomly chosen articles) s
gs 4017 1292 3404 643 rc
c10
360 0 4088 1838 2 MP stroke
gs 4195 1765 147 147 rc
0 j
41 71 -82 0 41 -71 4268 1885 4 MP
DP
gr

gr

c10

end %%Color Dict

eplot
%%EndObject

epage
end

showpage

%%Trailer
%%EOF
