%!PS-Adobe-2.0 EPSF-1.2
%%Creator: MATLAB, The MathWorks, Inc. Version 7.13.0.564 (R2011b). Operating System: Linux 3.11.0-18-generic #32~precise1-Ubuntu SMP Thu Feb 20 17:52:10 UTC 2014 x86_64.
%%Title: ./eps/user_randa100_moren/dot.eps
%%CreationDate: 03/18/2014  22:45:19
%%DocumentNeededFonts: Helvetica
%%DocumentProcessColors: Cyan Magenta Yellow Black
%%Pages: 1
%%BoundingBox:    58   199   549   589
%%EndComments

%%BeginProlog
% MathWorks dictionary
/MathWorks 160 dict begin
% definition operators
/bdef {bind def} bind def
/ldef {load def} bind def
/xdef {exch def} bdef
/xstore {exch store} bdef
% operator abbreviations
/c  /clip ldef
/cc /concat ldef
/cp /closepath ldef
/gr /grestore ldef
/gs /gsave ldef
/mt /moveto ldef
/np /newpath ldef
/cm /currentmatrix ldef
/sm /setmatrix ldef
/rm /rmoveto ldef
/rl /rlineto ldef
/s {show newpath} bdef
/sc {setcmykcolor} bdef
/sr /setrgbcolor ldef
/sg /setgray ldef
/w /setlinewidth ldef
/j /setlinejoin ldef
/cap /setlinecap ldef
/rc {rectclip} bdef
/rf {rectfill} bdef
% page state control
/pgsv () def
/bpage {/pgsv save def} bdef
/epage {pgsv restore} bdef
/bplot /gsave ldef
/eplot {stroke grestore} bdef
% orientation switch
/portraitMode 0 def /landscapeMode 1 def /rotateMode 2 def
% coordinate system mappings
/dpi2point 0 def
% font control
/FontSize 0 def
/FMS {/FontSize xstore findfont [FontSize 0 0 FontSize neg 0 0]
  makefont setfont} bdef
/reencode {exch dup where {pop load} {pop StandardEncoding} ifelse
  exch dup 3 1 roll findfont dup length dict begin
  { 1 index /FID ne {def}{pop pop} ifelse } forall
  /Encoding exch def currentdict end definefont pop} bdef
/isroman {findfont /CharStrings get /Agrave known} bdef
/FMSR {3 1 roll 1 index dup isroman {reencode} {pop pop} ifelse
  exch FMS} bdef
/csm {1 dpi2point div -1 dpi2point div scale neg translate
 dup landscapeMode eq {pop -90 rotate}
  {rotateMode eq {90 rotate} if} ifelse} bdef
% line types: solid, dotted, dashed, dotdash
/SO { [] 0 setdash } bdef
/DO { [.5 dpi2point mul 4 dpi2point mul] 0 setdash } bdef
/DA { [6 dpi2point mul] 0 setdash } bdef
/DD { [.5 dpi2point mul 4 dpi2point mul 6 dpi2point mul 4
  dpi2point mul] 0 setdash } bdef
% macros for lines and objects
/L {lineto stroke} bdef
/MP {3 1 roll moveto 1 sub {rlineto} repeat} bdef
/AP {{rlineto} repeat} bdef
/PDlw -1 def
/W {/PDlw currentlinewidth def setlinewidth} def
/PP {closepath eofill} bdef
/DP {closepath stroke} bdef
/MR {4 -2 roll moveto dup  0 exch rlineto exch 0 rlineto
  neg 0 exch rlineto closepath} bdef
/FR {MR stroke} bdef
/PR {MR fill} bdef
/L1i {{currentfile picstr readhexstring pop} image} bdef
/tMatrix matrix def
/MakeOval {newpath tMatrix currentmatrix pop translate scale
0 0 1 0 360 arc tMatrix setmatrix} bdef
/FO {MakeOval stroke} bdef
/PO {MakeOval fill} bdef
/PD {currentlinewidth 2 div 0 360 arc fill
   PDlw -1 eq not {PDlw w /PDlw -1 def} if} def
/FA {newpath tMatrix currentmatrix pop translate scale
  0 0 1 5 -2 roll arc tMatrix setmatrix stroke} bdef
/PA {newpath tMatrix currentmatrix pop	translate 0 0 moveto scale
  0 0 1 5 -2 roll arc closepath tMatrix setmatrix fill} bdef
/FAn {newpath tMatrix currentmatrix pop translate scale
  0 0 1 5 -2 roll arcn tMatrix setmatrix stroke} bdef
/PAn {newpath tMatrix currentmatrix pop translate 0 0 moveto scale
  0 0 1 5 -2 roll arcn closepath tMatrix setmatrix fill} bdef
/vradius 0 def /hradius 0 def /lry 0 def
/lrx 0 def /uly 0 def /ulx 0 def /rad 0 def
/MRR {/vradius xdef /hradius xdef /lry xdef /lrx xdef /uly xdef
  /ulx xdef newpath tMatrix currentmatrix pop ulx hradius add uly
  vradius add translate hradius vradius scale 0 0 1 180 270 arc 
  tMatrix setmatrix lrx hradius sub uly vradius add translate
  hradius vradius scale 0 0 1 270 360 arc tMatrix setmatrix
  lrx hradius sub lry vradius sub translate hradius vradius scale
  0 0 1 0 90 arc tMatrix setmatrix ulx hradius add lry vradius sub
  translate hradius vradius scale 0 0 1 90 180 arc tMatrix setmatrix
  closepath} bdef
/FRR {MRR stroke } bdef
/PRR {MRR fill } bdef
/MlrRR {/lry xdef /lrx xdef /uly xdef /ulx xdef /rad lry uly sub 2 div def
  newpath tMatrix currentmatrix pop ulx rad add uly rad add translate
  rad rad scale 0 0 1 90 270 arc tMatrix setmatrix lrx rad sub lry rad
  sub translate rad rad scale 0 0 1 270 90 arc tMatrix setmatrix
  closepath} bdef
/FlrRR {MlrRR stroke } bdef
/PlrRR {MlrRR fill } bdef
/MtbRR {/lry xdef /lrx xdef /uly xdef /ulx xdef /rad lrx ulx sub 2 div def
  newpath tMatrix currentmatrix pop ulx rad add uly rad add translate
  rad rad scale 0 0 1 180 360 arc tMatrix setmatrix lrx rad sub lry rad
  sub translate rad rad scale 0 0 1 0 180 arc tMatrix setmatrix
  closepath} bdef
/FtbRR {MtbRR stroke } bdef
/PtbRR {MtbRR fill } bdef
/stri 6 array def /dtri 6 array def
/smat 6 array def /dmat 6 array def
/tmat1 6 array def /tmat2 6 array def /dif 3 array def
/asub {/ind2 exch def /ind1 exch def dup dup
  ind1 get exch ind2 get sub exch } bdef
/tri_to_matrix {
  2 0 asub 3 1 asub 4 0 asub 5 1 asub
  dup 0 get exch 1 get 7 -1 roll astore } bdef
/compute_transform {
  dmat dtri tri_to_matrix tmat1 invertmatrix 
  smat stri tri_to_matrix tmat2 concatmatrix } bdef
/ds {stri astore pop} bdef
/dt {dtri astore pop} bdef
/db {2 copy /cols xdef /rows xdef mul dup string
  currentfile exch readhexstring pop
  /bmap xdef pop pop} bdef
/it {gs np dtri aload pop moveto lineto lineto cp c
  cols rows 8 compute_transform 
  {bmap} image gr}bdef
/il {newpath moveto lineto stroke}bdef
currentdict end def
%%EndProlog

%%BeginSetup
MathWorks begin

0 cap

end
%%EndSetup

%%Page: 1 1
%%BeginPageSetup
%%PageBoundingBox:    58   199   549   589
MathWorks begin
bpage
%%EndPageSetup

%%BeginObject: obj1
bplot

/dpi2point 12 def
portraitMode 0216 7344 csm

  480   268  5893  4687 MR c np
85 dict begin %Colortable dictionary
/c0 { 0.000000 0.000000 0.000000 sr} bdef
/c1 { 1.000000 1.000000 1.000000 sr} bdef
/c2 { 0.900000 0.000000 0.000000 sr} bdef
/c3 { 0.000000 0.820000 0.000000 sr} bdef
/c4 { 0.000000 0.000000 0.800000 sr} bdef
/c5 { 0.910000 0.820000 0.320000 sr} bdef
/c6 { 1.000000 0.260000 0.820000 sr} bdef
/c7 { 0.000000 0.820000 0.820000 sr} bdef
c0
1 j
1 sg
   0    0 6913 5186 PR
6 w
0 4226 5356 0 0 -4226 899 4615 4 MP
PP
-5356 0 0 4226 5356 0 0 -4226 899 4615 5 MP stroke
4 w
DO
SO
6 w
0 sg
 899 4615 mt 6255 4615 L
 899 4615 mt  899  389 L
 899 4615 mt  899 4561 L
%%IncludeResource: font Helvetica
/Helvetica /ISOLatin1Encoding 120 FMSR

 866 4760 mt 
(0) s
1434 4615 mt 1434 4561 L
1351 4760 mt 
(0.1) s
1970 4615 mt 1970 4561 L
1887 4760 mt 
(0.2) s
2505 4615 mt 2505 4561 L
2422 4760 mt 
(0.3) s
3041 4615 mt 3041 4561 L
2958 4760 mt 
(0.4) s
3577 4615 mt 3577 4561 L
3494 4760 mt 
(0.5) s
4112 4615 mt 4112 4561 L
4029 4760 mt 
(0.6) s
4648 4615 mt 4648 4561 L
4565 4760 mt 
(0.7) s
5183 4615 mt 5183 4561 L
5100 4760 mt 
(0.8) s
5719 4615 mt 5719 4561 L
5636 4760 mt 
(0.9) s
6255 4615 mt 6255 4561 L
6222 4760 mt 
(1) s
 899 4615 mt  952 4615 L
 798 4659 mt 
(0) s
 899 4192 mt  952 4192 L
 698 4236 mt 
(0.1) s
 899 3769 mt  952 3769 L
 698 3813 mt 
(0.2) s
 899 3347 mt  952 3347 L
 698 3391 mt 
(0.3) s
 899 2924 mt  952 2924 L
 698 2968 mt 
(0.4) s
 899 2502 mt  952 2502 L
 698 2546 mt 
(0.5) s
 899 2079 mt  952 2079 L
 698 2123 mt 
(0.6) s
 899 1656 mt  952 1656 L
 698 1700 mt 
(0.7) s
 899 1234 mt  952 1234 L
 698 1278 mt 
(0.8) s
 899  811 mt  952  811 L
 698  855 mt 
(0.9) s
 899  389 mt  952  389 L
 798  433 mt 
(1) s
gs 899 389 5357 4227 MR c np
931 2502 PD
gr

gs 858 2429 147 147 MR c np
  36   36  931 2502 FO
gr

gs 899 389 5357 4227 MR c np
1385 2502 PD
gs 1312 2429 147 147 MR c np
  36   36 1385 2502 FO
gr

223 0 1122 389 2 MP stroke
gr

gs 1049 316 370 147 MR c np
  36   36 1122  389 FO
  36   36 1345  389 FO
gr

gs 899 389 5357 4227 MR c np
938 389 PD
gr

gs 865 316 147 147 MR c np
  36   36  938  389 FO
gr

gs 899 389 5357 4227 MR c np
1002 389 PD
gr

gs 929 316 147 147 MR c np
  36   36 1002  389 FO
gr

gs 899 389 5357 4227 MR c np
1791 389 PD
gr

gs 1718 316 147 147 MR c np
  36   36 1791  389 FO
gr

gs 899 389 5357 4227 MR c np
950 3206 PD
gr

gs 877 3133 147 147 MR c np
  36   36  950 3206 FO
gr

gs 899 389 5357 4227 MR c np
1664 389 PD
gr

gs 1591 316 147 147 MR c np
  36   36 1664  389 FO
gr

gs 899 389 5357 4227 MR c np
1018 389 PD
gr

gs 945 316 147 147 MR c np
  36   36 1018  389 FO
gr

gs 899 389 5357 4227 MR c np
1256 389 PD
gr

gs 1183 316 147 147 MR c np
  36   36 1256  389 FO
gr

gs 899 389 5357 4227 MR c np
1010 389 PD
gr

gs 937 316 147 147 MR c np
  36   36 1010  389 FO
gr

gs 899 389 5357 4227 MR c np
981 3206 PD
gs 908 3133 147 147 MR c np
  36   36  981 3206 FO
gr

18 0 917 389 2 MP stroke
gr

gs 844 316 165 147 MR c np
  36   36  917  389 FO
  36   36  935  389 FO
gr

gs 899 389 5357 4227 MR c np
949 389 PD
gr

gs 876 316 147 147 MR c np
  36   36  949  389 FO
gr

gs 899 389 5357 4227 MR c np
972 389 PD
gr

gs 899 316 147 147 MR c np
  36   36  972  389 FO
gr

gs 899 389 5357 4227 MR c np
982 389 PD
gr

gs 909 316 147 147 MR c np
  36   36  982  389 FO
gr

gs 899 389 5357 4227 MR c np
958 389 PD
gr

gs 885 316 147 147 MR c np
  36   36  958  389 FO
gr

gs 899 389 5357 4227 MR c np
1061 2502 PD
gs 988 2429 147 147 MR c np
  36   36 1061 2502 FO
gr

1131 2502 PD
gs 1058 2429 147 147 MR c np
  36   36 1131 2502 FO
gr

1043 389 PD
gr

gs 970 316 147 147 MR c np
  36   36 1043  389 FO
gr

gs 899 389 5357 4227 MR c np
1071 2502 PD
gs 998 2429 147 147 MR c np
  36   36 1071 2502 FO
gr

167 0 1066 3206 2 MP stroke
gs 993 3133 314 147 MR c np
  36   36 1066 3206 FO
  36   36 1233 3206 FO
gr

1066 2502 PD
gs 993 2429 147 147 MR c np
  36   36 1066 2502 FO
gr

914 389 PD
gr

gs 841 316 147 147 MR c np
  36   36  914  389 FO
gr

gs 899 389 5357 4227 MR c np
1131 389 PD
gr

gs 1058 316 147 147 MR c np
  36   36 1131  389 FO
gr

gs 899 389 5357 4227 MR c np
910 389 PD
gr

gs 837 316 147 147 MR c np
  36   36  910  389 FO
gr

gs 899 389 5357 4227 MR c np
1434 2502 PD
gs 1361 2429 147 147 MR c np
  36   36 1434 2502 FO
gr

1568 2502 PD
gs 1495 2429 147 147 MR c np
  36   36 1568 2502 FO
gr

1311 2502 PD
gs 1238 2429 147 147 MR c np
  36   36 1311 2502 FO
gr

1791 389 PD
gr

gs 1718 316 147 147 MR c np
  36   36 1791  389 FO
gr

gs 899 389 5357 4227 MR c np
1256 3206 PD
gs 1183 3133 147 147 MR c np
  36   36 1256 3206 FO
gr

1142 3910 PD
gs 1069 3837 147 147 MR c np
  36   36 1142 3910 FO
gr

943 389 PD
gr

gs 870 316 147 147 MR c np
  36   36  943  389 FO
gr

gs 899 389 5357 4227 MR c np
86 -704 985 3206 2 MP stroke
gs 912 2429 233 851 MR c np
  36   36  985 3206 FO
  36   36 1071 2502 FO
gr

1090 389 PD
gr

gs 1017 316 147 147 MR c np
  36   36 1090  389 FO
gr

gs 899 389 5357 4227 MR c np
994 389 PD
gr

gs 921 316 147 147 MR c np
  36   36  994  389 FO
gr

gs 899 389 5357 4227 MR c np
989 389 PD
gr

gs 916 316 147 147 MR c np
  36   36  989  389 FO
gr

gs 899 389 5357 4227 MR c np
918 3206 PD
gr

gs 845 3133 147 147 MR c np
  36   36  918 3206 FO
gr

gs 899 389 5357 4227 MR c np
77 -705 975 2502 2 MP stroke
gs 902 1724 224 852 MR c np
  36   36  975 2502 FO
  36   36 1052 1797 FO
gr

3577 4540 PD
gs 3504 4467 147 147 MR c np
  36   36 3577 4540 FO
gr

1664 389 PD
gr

gs 1591 316 147 147 MR c np
  36   36 1664  389 FO
gr

gs 899 389 5357 4227 MR c np
948 2502 PD
gr

gs 875 2429 147 147 MR c np
  36   36  948 2502 FO
gr

gs 899 389 5357 4227 MR c np
920 2502 PD
gr

gs 847 2429 147 147 MR c np
  36   36  920 2502 FO
gr

gs 899 389 5357 4227 MR c np
988 3206 PD
gs 915 3133 147 147 MR c np
  36   36  988 3206 FO
gr

1494 389 PD
gr

gs 1421 316 147 147 MR c np
  36   36 1494  389 FO
gr

gs 899 389 5357 4227 MR c np
1032 2502 PD
gs 959 2429 147 147 MR c np
  36   36 1032 2502 FO
gr

1311 389 PD
gr

gs 1238 316 147 147 MR c np
  36   36 1311  389 FO
gr

gs 899 389 5357 4227 MR c np
927 389 PD
gr

gs 854 316 147 147 MR c np
  36   36  927  389 FO
gr

gs 899 389 5357 4227 MR c np
931 2502 PD
gr

gs 858 2429 147 147 MR c np
  36   36  931 2502 FO
gr

gs 899 389 5357 4227 MR c np
64 0 962 389 2 MP stroke
gr

gs 889 316 211 147 MR c np
  36   36  962  389 FO
  36   36 1026  389 FO
gr

gs 899 389 5357 4227 MR c np
953 389 PD
gr

gs 880 316 147 147 MR c np
  36   36  953  389 FO
gr

gs 899 389 5357 4227 MR c np
64 12 962 4289 2 MP stroke
gr

gs 889 4216 211 159 MR c np
  36   36  962 4289 FO
  36   36 1026 4301 FO
gr

gs 899 389 5357 4227 MR c np
1113 2502 PD
gs 1040 2429 147 147 MR c np
  36   36 1113 2502 FO
gr

1052 389 PD
gr

gs 979 316 147 147 MR c np
  36   36 1052  389 FO
gr

gs 899 389 5357 4227 MR c np
1664 389 PD
gr

gs 1591 316 147 147 MR c np
  36   36 1664  389 FO
gr

gs 899 389 5357 4227 MR c np
1568 2502 PD
gs 1495 2429 147 147 MR c np
  36   36 1568 2502 FO
gr

923 3206 PD
gr

gs 850 3133 147 147 MR c np
  36   36  923 3206 FO
gr

gs 899 389 5357 4227 MR c np
71 1267 70 0 969 2502 3 MP stroke
gr

gs 896 2429 288 1414 MR c np
  36   36  969 2502 FO
  36   36 1039 2502 FO
  36   36 1110 3769 FO
gr

gs 899 389 5357 4227 MR c np
959 3206 PD
gr

gs 886 3133 147 147 MR c np
  36   36  959 3206 FO
gr

gs 899 389 5357 4227 MR c np
765 1056 765 0 1664 389 3 MP stroke
gr

gs 1591 316 1677 1203 MR c np
  36   36 1664  389 FO
  36   36 2429  389 FO
  36   36 3194 1445 FO
gr

gs 899 389 5357 4227 MR c np
1142 3558 PD
gs 1069 3485 147 147 MR c np
  36   36 1142 3558 FO
gr

1043 389 PD
gr

gs 970 316 147 147 MR c np
  36   36 1043  389 FO
gr

gs 899 389 5357 4227 MR c np
1568 389 PD
gr

gs 1495 316 147 147 MR c np
  36   36 1568  389 FO
gr

gs 899 389 5357 4227 MR c np
939 389 PD
gr

gs 866 316 147 147 MR c np
  36   36  939  389 FO
gr

gs 899 389 5357 4227 MR c np
47 0 945 389 2 MP stroke
gr

gs 872 316 194 147 MR c np
  36   36  945  389 FO
  36   36  992  389 FO
gr

gs 899 389 5357 4227 MR c np
1970 3206 PD
gs 1897 3133 147 147 MR c np
  36   36 1970 3206 FO
gr

1154 389 PD
gr

gs 1081 316 147 147 MR c np
  36   36 1154  389 FO
gr

gs 899 389 5357 4227 MR c np
1434 2502 PD
gs 1361 2429 147 147 MR c np
  36   36 1434 2502 FO
gr

1026 389 PD
gr

gs 953 316 147 147 MR c np
  36   36 1026  389 FO
gr

gs 899 389 5357 4227 MR c np
67 0 965 389 2 MP stroke
gr

gs 892 316 214 147 MR c np
  36   36  965  389 FO
  36   36 1032  389 FO
gr

gs 899 389 5357 4227 MR c np
982 3558 PD
gs 909 3485 147 147 MR c np
  36   36  982 3558 FO
gr

1233 389 PD
gr

gs 1160 316 147 147 MR c np
  36   36 1233  389 FO
gr

gs 899 389 5357 4227 MR c np
905 3206 PD
gr

gs 832 3133 147 147 MR c np
  36   36  905 3206 FO
gr

gs 899 389 5357 4227 MR c np
918 3206 PD
gr

gs 845 3133 147 147 MR c np
  36   36  918 3206 FO
gr

gs 899 389 5357 4227 MR c np
975 389 PD
gr

gs 902 316 147 147 MR c np
  36   36  975  389 FO
gr

gs 899 389 5357 4227 MR c np
1180 389 PD
gr

gs 1107 316 147 147 MR c np
  36   36 1180  389 FO
gr

gs 899 389 5357 4227 MR c np
16 2113 914 389 2 MP stroke
gr

gs 841 316 163 2260 MR c np
  36   36  914  389 FO
  36   36  930 2502 FO
gr

gs 899 389 5357 4227 MR c np
1142 2502 PD
gs 1069 2429 147 147 MR c np
  36   36 1142 2502 FO
gr

936 3206 PD
gr

gs 863 3133 147 147 MR c np
  36   36  936 3206 FO
gr

gs 899 389 5357 4227 MR c np
1071 3769 PD
gs 998 3696 147 147 MR c np
  36   36 1071 3769 FO
gr

1664 3206 PD
gs 1591 3133 147 147 MR c np
  36   36 1664 3206 FO
gr

1122 389 PD
gr

gs 1049 316 147 147 MR c np
  36   36 1122  389 FO
gr

gs 899 389 5357 4227 MR c np
991 3206 PD
gs 918 3133 147 147 MR c np
  36   36  991 3206 FO
gr

1039 3558 PD
gs 966 3485 147 147 MR c np
  36   36 1039 3558 FO
gr

929 389 PD
gr

gs 856 316 147 147 MR c np
  36   36  929  389 FO
gr

gs 899 389 5357 4227 MR c np
1012 2502 PD
gs 939 2429 147 147 MR c np
  36   36 1012 2502 FO
gr

940 2502 PD
gr

gs 867 2429 147 147 MR c np
  36   36  940 2502 FO
gr

gs 899 389 5357 4227 MR c np
1113 2502 PD
gs 1040 2429 147 147 MR c np
  36   36 1113 2502 FO
gr

1015 2502 PD
gs 942 2429 147 147 MR c np
  36   36 1015 2502 FO
gr

335 1408 1233 389 2 MP stroke
gr

gs 1160 316 482 1555 MR c np
  36   36 1233  389 FO
  36   36 1568 1797 FO
gr

gs 899 389 5357 4227 MR c np
2684 3206 PD
gs 2611 3133 147 147 MR c np
  36   36 2684 3206 FO
gr

6255 2502 PD
gr

gs 6182 2429 147 147 MR c np
  36   36 6255 2502 FO
gr

gs 899 389 5357 4227 MR c np
972 389 PD
gr

gs 899 316 147 147 MR c np
  36   36  972  389 FO
gr

gs 899 389 5357 4227 MR c np
977 3206 PD
gs 904 3133 147 147 MR c np
  36   36  977 3206 FO
gr

992 389 PD
gr

gs 919 316 147 147 MR c np
  36   36  992  389 FO
gr

gs 899 389 5357 4227 MR c np
946 389 PD
gr

gs 873 316 147 147 MR c np
  36   36  946  389 FO
gr

gs 899 389 5357 4227 MR c np
994 389 PD
gr

gs 921 316 147 147 MR c np
  36   36  994  389 FO
gr

gs 899 389 5357 4227 MR c np
1385 2502 PD
gs 1312 2429 147 147 MR c np
  36   36 1385 2502 FO
gr

3577 389 PD
gr

gs 3504 316 147 147 MR c np
  36   36 3577  389 FO
gr

gs 899 389 5357 4227 MR c np
922 2502 PD
gr

gs 849 2429 147 147 MR c np
  36   36  922 2502 FO
gr

gs 899 389 5357 4227 MR c np
944 389 PD
gr

gs 871 316 147 147 MR c np
  36   36  944  389 FO
gr

gs 899 389 5357 4227 MR c np
934 3558 PD
gr

gs 861 3485 147 147 MR c np
  36   36  934 3558 FO
gr

gs 899 389 5357 4227 MR c np
1154 389 PD
gr

gs 1081 316 147 147 MR c np
  36   36 1154  389 FO
gr

gs 899 389 5357 4227 MR c np
1032 2502 PD
gs 959 2429 147 147 MR c np
  36   36 1032 2502 FO
gr

954 3206 PD
gr

gs 881 3133 147 147 MR c np
  36   36  954 3206 FO
gr

gs 899 389 5357 4227 MR c np
984 2502 PD
gs 911 2429 147 147 MR c np
  36   36  984 2502 FO
gr

927 389 PD
gr

gs 854 316 147 147 MR c np
  36   36  927  389 FO
gr

gs 899 389 5357 4227 MR c np
969 2502 PD
gr

gs 896 2429 147 147 MR c np
  36   36  969 2502 FO
gr

gs 899 389 5357 4227 MR c np
916 2502 PD
gr

gs 843 2429 147 147 MR c np
  36   36  916 2502 FO
gr

gs 899 389 5357 4227 MR c np
951 3558 PD
gr

gs 878 3485 147 147 MR c np
  36   36  951 3558 FO
gr

gs 899 389 5357 4227 MR c np
1071 3558 PD
gs 998 3485 147 147 MR c np
  36   36 1071 3558 FO
gr

1154 2502 PD
gs 1081 2429 147 147 MR c np
  36   36 1154 2502 FO
gr

1142 389 PD
gr

gs 1069 316 147 147 MR c np
  36   36 1142  389 FO
gr

gs 899 389 5357 4227 MR c np
1032 389 PD
gr

gs 959 316 147 147 MR c np
  36   36 1032  389 FO
gr

gs 899 389 5357 4227 MR c np
960 389 PD
gr

gs 887 316 147 147 MR c np
  36   36  960  389 FO
gr

gs 899 389 5357 4227 MR c np
21 0 919 389 2 MP stroke
gr

gs 846 316 168 147 MR c np
  36   36  919  389 FO
  36   36  940  389 FO
gr

gs 899 389 5357 4227 MR c np
1568 389 PD
gr

gs 1495 316 147 147 MR c np
  36   36 1568  389 FO
gr

gs 899 389 5357 4227 MR c np
1434 389 PD
gr

gs 1361 316 147 147 MR c np
  36   36 1434  389 FO
gr

gs 899 389 5357 4227 MR c np
1026 2502 PD
gs 953 2429 147 147 MR c np
  36   36 1026 2502 FO
gr

916 389 PD
gr

gs 843 316 147 147 MR c np
  36   36  916  389 FO
gr

gs 899 389 5357 4227 MR c np
179 1408 1077 389 2 MP stroke
gr

gs 1004 316 326 1555 MR c np
  36   36 1077  389 FO
  36   36 1256 1797 FO
gr

gs 899 389 5357 4227 MR c np
945 2502 PD
gr

gs 872 2429 147 147 MR c np
  36   36  945 2502 FO
gr

gs 899 389 5357 4227 MR c np
917 389 PD
gr

gs 844 316 147 147 MR c np
  36   36  917  389 FO
gr

gs 899 389 5357 4227 MR c np
956 3769 PD
gr

gs 883 3696 147 147 MR c np
  36   36  956 3769 FO
gr

gs 899 389 5357 4227 MR c np
1281 389 PD
gr

gs 1208 316 147 147 MR c np
  36   36 1281  389 FO
gr

gs 899 389 5357 4227 MR c np
1568 2502 PD
gs 1495 2429 147 147 MR c np
  36   36 1568 2502 FO
gr

963 2502 PD
gr

gs 890 2429 147 147 MR c np
  36   36  963 2502 FO
gr

gs 899 389 5357 4227 MR c np
980 2502 PD
gs 907 2429 147 147 MR c np
  36   36  980 2502 FO
gr

986 389 PD
gr

gs 913 316 147 147 MR c np
  36   36  986  389 FO
gr

gs 899 389 5357 4227 MR c np
1568 3206 PD
gs 1495 3133 147 147 MR c np
  36   36 1568 3206 FO
gr

1061 3206 PD
gs 988 3133 147 147 MR c np
  36   36 1061 3206 FO
gr

905 3558 PD
gr

gs 832 3485 147 147 MR c np
  36   36  905 3558 FO
gr

gs 899 389 5357 4227 MR c np
989 389 PD
gr

gs 916 316 147 147 MR c np
  36   36  989  389 FO
gr

gs 899 389 5357 4227 MR c np
28 1408 926 389 2 MP stroke
gr

gs 853 316 175 1555 MR c np
  36   36  926  389 FO
  36   36  954 1797 FO
gr

gs 899 389 5357 4227 MR c np
26 0 925 389 2 MP stroke
gr

gs 852 316 173 147 MR c np
  36   36  925  389 FO
  36   36  951  389 FO
gr

gs 899 389 5357 4227 MR c np
956 3206 PD
gr

gs 883 3133 147 147 MR c np
  36   36  956 3206 FO
gr

gs 899 389 5357 4227 MR c np
992 2502 PD
gs 919 2429 147 147 MR c np
  36   36  992 2502 FO
gr

1047 389 PD
gr

gs 974 316 147 147 MR c np
  36   36 1047  389 FO
gr

gs 899 389 5357 4227 MR c np
985 389 PD
gr

gs 912 316 147 147 MR c np
  36   36  985  389 FO
gr

gs 899 389 5357 4227 MR c np
21 0 21 0 920 389 3 MP stroke
gr

gs 847 316 189 147 MR c np
  36   36  920  389 FO
  36   36  941  389 FO
  36   36  962  389 FO
gr

gs 899 389 5357 4227 MR c np
1281 2502 PD
gs 1208 2429 147 147 MR c np
  36   36 1281 2502 FO
gr

1097 389 PD
gr

gs 1024 316 147 147 MR c np
  36   36 1097  389 FO
gr

gs 899 389 5357 4227 MR c np
1097 389 PD
gr

gs 1024 316 147 147 MR c np
  36   36 1097  389 FO
gr

gs 899 389 5357 4227 MR c np
2238 389 PD
gr

gs 2165 316 147 147 MR c np
  36   36 2238  389 FO
gr

gs 899 389 5357 4227 MR c np
934 2502 PD
gr

gs 861 2429 147 147 MR c np
  36   36  934 2502 FO
gr

gs 899 389 5357 4227 MR c np
1142 389 PD
gr

gs 1069 316 147 147 MR c np
  36   36 1142  389 FO
gr

gs 899 389 5357 4227 MR c np
1023 3206 PD
gs 950 3133 147 147 MR c np
  36   36 1023 3206 FO
gr

1233 2502 PD
gs 1160 2429 147 147 MR c np
  36   36 1233 2502 FO
gr

1256 389 PD
gr

gs 1183 316 147 147 MR c np
  36   36 1256  389 FO
gr

gs 899 389 5357 4227 MR c np
937 389 PD
gr

gs 864 316 147 147 MR c np
  36   36  937  389 FO
gr

gs 899 389 5357 4227 MR c np
927 389 PD
gr

gs 854 316 147 147 MR c np
  36   36  927  389 FO
gr

gs 899 389 5357 4227 MR c np
1020 389 PD
gr

gs 947 316 147 147 MR c np
  36   36 1020  389 FO
gr

gs 899 389 5357 4227 MR c np
980 389 PD
gr

gs 907 316 147 147 MR c np
  36   36  980  389 FO
gr

gs 899 389 5357 4227 MR c np
984 2502 PD
gs 911 2429 147 147 MR c np
  36   36  984 2502 FO
gr

985 389 PD
gr

gs 912 316 147 147 MR c np
  36   36  985  389 FO
gr

gs 899 389 5357 4227 MR c np
1970 389 PD
gr

gs 1897 316 147 147 MR c np
  36   36 1970  389 FO
gr

gs 899 389 5357 4227 MR c np
1233 389 PD
gr

gs 1160 316 147 147 MR c np
  36   36 1233  389 FO
gr

gs 899 389 5357 4227 MR c np
933 389 PD
gr

gs 860 316 147 147 MR c np
  36   36  933  389 FO
gr

gs 899 389 5357 4227 MR c np
950 2502 PD
gr

gs 877 2429 147 147 MR c np
  36   36  950 2502 FO
gr

gs 899 389 5357 4227 MR c np
1097 389 PD
gr

gs 1024 316 147 147 MR c np
  36   36 1097  389 FO
gr

gs 899 389 5357 4227 MR c np
1122 3206 PD
gs 1049 3133 147 147 MR c np
  36   36 1122 3206 FO
gr

1122 389 PD
gr

gs 1049 316 147 147 MR c np
  36   36 1122  389 FO
gr

gs 899 389 5357 4227 MR c np
956 2502 PD
gr

gs 883 2429 147 147 MR c np
  36   36  956 2502 FO
gr

gs 899 389 5357 4227 MR c np
1056 389 PD
gr

gs 983 316 147 147 MR c np
  36   36 1056  389 FO
gr

gs 899 389 5357 4227 MR c np
966 2502 PD
gr

gs 893 2429 147 147 MR c np
  36   36  966 2502 FO
gr

gs 899 389 5357 4227 MR c np
6255 389 PD
gr

gs 6182 316 147 147 MR c np
  36   36 6255  389 FO
gr

gs 899 389 5357 4227 MR c np
1154 389 PD
gr

gs 1081 316 147 147 MR c np
  36   36 1154  389 FO
gr

gs 899 389 5357 4227 MR c np
916 3558 PD
gr

gs 843 3485 147 147 MR c np
  36   36  916 3558 FO
gr

gs 899 389 5357 4227 MR c np
919 2502 PD
gr

gs 846 2429 147 147 MR c np
  36   36  919 2502 FO
gr

gs 899 389 5357 4227 MR c np
977 389 PD
gr

gs 904 316 147 147 MR c np
  36   36  977  389 FO
gr

gs 899 389 5357 4227 MR c np
989 3769 PD
gs 916 3696 147 147 MR c np
  36   36  989 3769 FO
gr

2238 389 PD
gr

gs 2165 316 147 147 MR c np
  36   36 2238  389 FO
gr

gs 899 389 5357 4227 MR c np
955 389 PD
gr

gs 882 316 147 147 MR c np
  36   36  955  389 FO
gr

gs 899 389 5357 4227 MR c np
944 2502 PD
gr

gs 871 2429 147 147 MR c np
  36   36  944 2502 FO
gr

gs 899 389 5357 4227 MR c np
1568 389 PD
gr

gs 1495 316 147 147 MR c np
  36   36 1568  389 FO
gr

gs 899 389 5357 4227 MR c np
931 389 PD
gr

gs 858 316 147 147 MR c np
  36   36  931  389 FO
gr

gs 899 389 5357 4227 MR c np
3577 389 PD
gr

gs 3504 316 147 147 MR c np
  36   36 3577  389 FO
gr

gs 899 389 5357 4227 MR c np
1311 4230 PD
gs 1238 4157 147 147 MR c np
  36   36 1311 4230 FO
gr

1071 389 PD
gr

gs 998 316 147 147 MR c np
  36   36 1071  389 FO
gr

gs 899 389 5357 4227 MR c np
1791 389 PD
gr

gs 1718 316 147 147 MR c np
  36   36 1791  389 FO
gr

gs 899 389 5357 4227 MR c np
1434 389 PD
gr

gs 1361 316 147 147 MR c np
  36   36 1434  389 FO
gr

gs 899 389 5357 4227 MR c np
919 389 PD
gr

gs 846 316 147 147 MR c np
  36   36  919  389 FO
gr

gs 899 389 5357 4227 MR c np
1256 2502 PD
gs 1183 2429 147 147 MR c np
  36   36 1256 2502 FO
gr

2238 389 PD
gr

gs 2165 316 147 147 MR c np
  36   36 2238  389 FO
gr

gs 899 389 5357 4227 MR c np
1052 389 PD
gr

gs 979 316 147 147 MR c np
  36   36 1052  389 FO
gr

gs 899 389 5357 4227 MR c np
1233 389 PD
gr

gs 1160 316 147 147 MR c np
  36   36 1233  389 FO
gr

gs 899 389 5357 4227 MR c np
28 -705 927 2502 2 MP stroke
gr

gs 854 1724 175 852 MR c np
  36   36  927 2502 FO
  36   36  955 1797 FO
gr

gs 899 389 5357 4227 MR c np
85 0 984 389 2 MP stroke
gr

gs 911 316 232 147 MR c np
  36   36  984  389 FO
  36   36 1069  389 FO
gr

gs 899 389 5357 4227 MR c np
985 389 PD
gr

gs 912 316 147 147 MR c np
  36   36  985  389 FO
gr

gs 899 389 5357 4227 MR c np
1791 389 PD
gr

gs 1718 316 147 147 MR c np
  36   36 1791  389 FO
gr

gs 899 389 5357 4227 MR c np
1032 389 PD
gr

gs 959 316 147 147 MR c np
  36   36 1032  389 FO
gr

gs 899 389 5357 4227 MR c np
934 2502 PD
gr

gs 861 2429 147 147 MR c np
  36   36  934 2502 FO
gr

gs 899 389 5357 4227 MR c np
936 389 PD
gr

gs 863 316 147 147 MR c np
  36   36  936  389 FO
gr

gs 899 389 5357 4227 MR c np
954 2502 PD
gr

gs 881 2429 147 147 MR c np
  36   36  954 2502 FO
gr

gs 899 389 5357 4227 MR c np
1071 3558 PD
gs 998 3485 147 147 MR c np
  36   36 1071 3558 FO
gr

946 389 PD
gr

gs 873 316 147 147 MR c np
  36   36  946  389 FO
gr

gs 899 389 5357 4227 MR c np
924 389 PD
gr

gs 851 316 147 147 MR c np
  36   36  924  389 FO
gr

gs 899 389 5357 4227 MR c np
1043 389 PD
gr

gs 970 316 147 147 MR c np
  36   36 1043  389 FO
gr

gs 899 389 5357 4227 MR c np
961 389 PD
gr

gs 888 316 147 147 MR c np
  36   36  961  389 FO
gr

gs 899 389 5357 4227 MR c np
2238 2502 PD
gs 2165 2429 147 147 MR c np
  36   36 2238 2502 FO
gr

985 389 PD
gr

gs 912 316 147 147 MR c np
  36   36  985  389 FO
gr

gs 899 389 5357 4227 MR c np
1043 3558 PD
gs 970 3485 147 147 MR c np
  36   36 1043 3558 FO
gr

921 389 PD
gr

gs 848 316 147 147 MR c np
  36   36  921  389 FO
gr

gs 899 389 5357 4227 MR c np
954 389 PD
gr

gs 881 316 147 147 MR c np
  36   36  954  389 FO
gr

gs 899 389 5357 4227 MR c np
1004 389 PD
gr

gs 931 316 147 147 MR c np
  36   36 1004  389 FO
gr

gs 899 389 5357 4227 MR c np
1568 389 PD
gr

gs 1495 316 147 147 MR c np
  36   36 1568  389 FO
gr

gs 899 389 5357 4227 MR c np
383 -704 1281 3206 2 MP stroke
gs 1208 2429 530 851 MR c np
  36   36 1281 3206 FO
  36   36 1664 2502 FO
gr

1122 2502 PD
gs 1049 2429 147 147 MR c np
  36   36 1122 2502 FO
gr

1154 389 PD
gr

gs 1081 316 147 147 MR c np
  36   36 1154  389 FO
gr

gs 899 389 5357 4227 MR c np
3577 2502 PD
gs 3504 2429 147 147 MR c np
  36   36 3577 2502 FO
gr

24 -705 922 2502 2 MP stroke
gr

gs 849 1724 171 852 MR c np
  36   36  922 2502 FO
  36   36  946 1797 FO
gr

gs 899 389 5357 4227 MR c np
957 389 PD
gr

gs 884 316 147 147 MR c np
  36   36  957  389 FO
gr

gs 899 389 5357 4227 MR c np
992 389 PD
gr

gs 919 316 147 147 MR c np
  36   36  992  389 FO
gr

gs 899 389 5357 4227 MR c np
2238 2502 PD
gs 2165 2429 147 147 MR c np
  36   36 2238 2502 FO
gr

1568 389 PD
gr

gs 1495 316 147 147 MR c np
  36   36 1568  389 FO
gr

gs 899 389 5357 4227 MR c np
1385 2502 PD
gs 1312 2429 147 147 MR c np
  36   36 1385 2502 FO
gr

962 389 PD
gr

gs 889 316 147 147 MR c np
  36   36  962  389 FO
gr

gs 899 389 5357 4227 MR c np
967 389 PD
gr

gs 894 316 147 147 MR c np
  36   36  967  389 FO
gr

gs 899 389 5357 4227 MR c np
926 389 PD
gr

gs 853 316 147 147 MR c np
  36   36  926  389 FO
gr

gs 899 389 5357 4227 MR c np
1052 389 PD
gr

gs 979 316 147 147 MR c np
  36   36 1052  389 FO
gr

gs 899 389 5357 4227 MR c np
964 3206 PD
gr

gs 891 3133 147 147 MR c np
  36   36  964 3206 FO
gr

gs 899 389 5357 4227 MR c np
1036 2502 PD
gs 963 2429 147 147 MR c np
  36   36 1036 2502 FO
gr

998 2502 PD
gs 925 2429 147 147 MR c np
  36   36  998 2502 FO
gr

1233 389 PD
gr

gs 1160 316 147 147 MR c np
  36   36 1233  389 FO
gr

gs 899 389 5357 4227 MR c np
947 389 PD
gr

gs 874 316 147 147 MR c np
  36   36  947  389 FO
gr

gs 899 389 5357 4227 MR c np
2238 4192 PD
gs 2165 4119 147 147 MR c np
  36   36 2238 4192 FO
gr

1039 3206 PD
gs 966 3133 147 147 MR c np
  36   36 1039 3206 FO
gr

1006 389 PD
gr

gs 933 316 147 147 MR c np
  36   36 1006  389 FO
gr

gs 899 389 5357 4227 MR c np
1970 2502 PD
gs 1897 2429 147 147 MR c np
  36   36 1970 2502 FO
gr

934 389 PD
gr

gs 861 316 147 147 MR c np
  36   36  934  389 FO
gr

gs 899 389 5357 4227 MR c np
959 389 PD
gr

gs 886 316 147 147 MR c np
  36   36  959  389 FO
gr

gs 899 389 5357 4227 MR c np
1029 3206 PD
gs 956 3133 147 147 MR c np
  36   36 1029 3206 FO
gr

1166 3769 PD
gs 1093 3696 147 147 MR c np
  36   36 1166 3769 FO
gr

935 2502 PD
gr

gs 862 2429 147 147 MR c np
  36   36  935 2502 FO
gr

gs 899 389 5357 4227 MR c np
101 0 101 0 1000 389 3 MP stroke
gr

gs 927 316 349 147 MR c np
  36   36 1000  389 FO
  36   36 1101  389 FO
  36   36 1202  389 FO
gr

gs 899 389 5357 4227 MR c np
955 389 PD
gr

gs 882 316 147 147 MR c np
  36   36  955  389 FO
gr

gs 899 389 5357 4227 MR c np
980 389 PD
gr

gs 907 316 147 147 MR c np
  36   36  980  389 FO
gr

gs 899 389 5357 4227 MR c np
1018 389 PD
gr

gs 945 316 147 147 MR c np
  36   36 1018  389 FO
gr

gs 899 389 5357 4227 MR c np
1047 4262 PD
gs 974 4189 147 147 MR c np
  36   36 1047 4262 FO
gr

919 389 PD
gr

gs 846 316 147 147 MR c np
  36   36  919  389 FO
gr

gs 899 389 5357 4227 MR c np
981 2502 PD
gs 908 2429 147 147 MR c np
  36   36  981 2502 FO
gr

1012 389 PD
gr

gs 939 316 147 147 MR c np
  36   36 1012  389 FO
gr

gs 899 389 5357 4227 MR c np
1664 2502 PD
gs 1591 2429 147 147 MR c np
  36   36 1664 2502 FO
gr

961 2502 PD
gr

gs 888 2429 147 147 MR c np
  36   36  961 2502 FO
gr

gs 899 389 5357 4227 MR c np
37 0 935 389 2 MP stroke
gr

gs 862 316 184 147 MR c np
  36   36  935  389 FO
  36   36  972  389 FO
gr

gs 899 389 5357 4227 MR c np
945 2502 PD
gr

gs 872 2429 147 147 MR c np
  36   36  945 2502 FO
gr

gs 899 389 5357 4227 MR c np
924 2502 PD
gr

gs 851 2429 147 147 MR c np
  36   36  924 2502 FO
gr

gs 899 389 5357 4227 MR c np
1012 389 PD
gr

gs 939 316 147 147 MR c np
  36   36 1012  389 FO
gr

gs 899 389 5357 4227 MR c np
1018 2502 PD
gs 945 2429 147 147 MR c np
  36   36 1018 2502 FO
gr

1061 2502 PD
gs 988 2429 147 147 MR c np
  36   36 1061 2502 FO
gr

964 389 PD
gr

gs 891 316 147 147 MR c np
  36   36  964  389 FO
gr

gs 899 389 5357 4227 MR c np
1568 389 PD
gr

gs 1495 316 147 147 MR c np
  36   36 1568  389 FO
gr

gs 899 389 5357 4227 MR c np
924 389 PD
gr

gs 851 316 147 147 MR c np
  36   36  924  389 FO
gr

gs 899 389 5357 4227 MR c np
1385 389 PD
gr

gs 1312 316 147 147 MR c np
  36   36 1385  389 FO
gr

gs 899 389 5357 4227 MR c np
934 389 PD
gr

gs 861 316 147 147 MR c np
  36   36  934  389 FO
gr

gs 899 389 5357 4227 MR c np
38 0 937 389 2 MP stroke
gr

gs 864 316 185 147 MR c np
  36   36  937  389 FO
  36   36  975  389 FO
gr

gs 899 389 5357 4227 MR c np
335 2535 1233 389 2 MP stroke
gr

gs 1160 316 482 2682 MR c np
  36   36 1233  389 FO
  36   36 1568 2924 FO
gr

gs 899 389 5357 4227 MR c np
922 389 PD
gr

gs 849 316 147 147 MR c np
  36   36  922  389 FO
gr

gs 899 389 5357 4227 MR c np
96 0 994 389 2 MP stroke
gr

gs 921 316 243 147 MR c np
  36   36  994  389 FO
  36   36 1090  389 FO
gr

gs 899 389 5357 4227 MR c np
3577 389 PD
gr

gs 3504 316 147 147 MR c np
  36   36 3577  389 FO
gr

gs 899 389 5357 4227 MR c np
1090 389 PD
gr

gs 1017 316 147 147 MR c np
  36   36 1090  389 FO
gr

gs 899 389 5357 4227 MR c np
989 389 PD
gr

gs 916 316 147 147 MR c np
  36   36  989  389 FO
gr

gs 899 389 5357 4227 MR c np
972 2502 PD
gs 899 2429 147 147 MR c np
  36   36  972 2502 FO
gr

22 1408 920 389 2 MP stroke
gr

gs 847 316 169 1555 MR c np
  36   36  920  389 FO
  36   36  942 1797 FO
gr

gs 899 389 5357 4227 MR c np
944 2502 PD
gr

gs 871 2429 147 147 MR c np
  36   36  944 2502 FO
gr

gs 899 389 5357 4227 MR c np
944 389 PD
gr

gs 871 316 147 147 MR c np
  36   36  944  389 FO
gr

gs 899 389 5357 4227 MR c np
75 1408 974 389 2 MP stroke
gr

gs 901 316 222 1555 MR c np
  36   36  974  389 FO
  36   36 1049 1797 FO
gr

gs 899 389 5357 4227 MR c np
1097 3206 PD
gs 1024 3133 147 147 MR c np
  36   36 1097 3206 FO
gr

1494 3206 PD
gs 1421 3133 147 147 MR c np
  36   36 1494 3206 FO
gr

922 389 PD
gr

gs 849 316 147 147 MR c np
  36   36  922  389 FO
gr

gs 899 389 5357 4227 MR c np
48 0 48 0 48 0 946 389 4 MP stroke
gr

gs 873 316 291 147 MR c np
  36   36  946  389 FO
  36   36  994  389 FO
  36   36 1042  389 FO
  36   36 1090  389 FO
gr

gs 899 389 5357 4227 MR c np
1036 389 PD
gr

gs 963 316 147 147 MR c np
  36   36 1036  389 FO
gr

gs 899 389 5357 4227 MR c np
926 2502 PD
gr

gs 853 2429 147 147 MR c np
  36   36  926 2502 FO
gr

gs 899 389 5357 4227 MR c np
915 389 PD
gr

gs 842 316 147 147 MR c np
  36   36  915  389 FO
gr

gs 899 389 5357 4227 MR c np
3577 389 PD
gr

gs 3504 316 147 147 MR c np
  36   36 3577  389 FO
gr

gs 899 389 5357 4227 MR c np
105 1408 1004 389 2 MP stroke
gr

gs 931 316 252 1555 MR c np
  36   36 1004  389 FO
  36   36 1109 1797 FO
gr

gs 899 389 5357 4227 MR c np
1018 2502 PD
gs 945 2429 147 147 MR c np
  36   36 1018 2502 FO
gr

56 0 955 389 2 MP stroke
gr

gs 882 316 203 147 MR c np
  36   36  955  389 FO
  36   36 1011  389 FO
gr

gs 899 389 5357 4227 MR c np
1026 389 PD
gr

gs 953 316 147 147 MR c np
  36   36 1026  389 FO
gr

gs 899 389 5357 4227 MR c np
2684 2502 PD
gs 2611 2429 147 147 MR c np
  36   36 2684 2502 FO
gr

1434 3558 PD
gs 1361 3485 147 147 MR c np
  36   36 1434 3558 FO
gr

1166 3206 PD
gs 1093 3133 147 147 MR c np
  36   36 1166 3206 FO
gr

978 2502 PD
gs 905 2429 147 147 MR c np
  36   36  978 2502 FO
gr

1166 3558 PD
gs 1093 3485 147 147 MR c np
  36   36 1166 3558 FO
gr

1385 389 PD
gr

gs 1312 316 147 147 MR c np
  36   36 1385  389 FO
gr

gs 899 389 5357 4227 MR c np
1056 2502 PD
gs 983 2429 147 147 MR c np
  36   36 1056 2502 FO
gr

1020 3558 PD
gs 947 3485 147 147 MR c np
  36   36 1020 3558 FO
gr

1664 389 PD
gr

gs 1591 316 147 147 MR c np
  36   36 1664  389 FO
gr

gs 899 389 5357 4227 MR c np
16 0 16 0 915 389 3 MP stroke
gr

gs 842 316 179 147 MR c np
  36   36  915  389 FO
  36   36  931  389 FO
  36   36  947  389 FO
gr

gs 899 389 5357 4227 MR c np
941 389 PD
gr

gs 868 316 147 147 MR c np
  36   36  941  389 FO
gr

gs 899 389 5357 4227 MR c np
949 2502 PD
gr

gs 876 2429 147 147 MR c np
  36   36  949 2502 FO
gr

gs 899 389 5357 4227 MR c np
953 389 PD
gr

gs 880 316 147 147 MR c np
  36   36  953  389 FO
gr

gs 899 389 5357 4227 MR c np
1043 4380 PD
gs 970 4307 147 147 MR c np
  36   36 1043 4380 FO
gr

1032 389 PD
gr

gs 959 316 147 147 MR c np
  36   36 1032  389 FO
gr

gs 899 389 5357 4227 MR c np
1131 389 PD
gr

gs 1058 316 147 147 MR c np
  36   36 1131  389 FO
gr

gs 899 389 5357 4227 MR c np
933 389 PD
gr

gs 860 316 147 147 MR c np
  36   36  933  389 FO
gr

gs 899 389 5357 4227 MR c np
1077 3558 PD
gs 1004 3485 147 147 MR c np
  36   36 1077 3558 FO
gr

1000 389 PD
gr

gs 927 316 147 147 MR c np
  36   36 1000  389 FO
gr

gs 899 389 5357 4227 MR c np
1047 389 PD
gr

gs 974 316 147 147 MR c np
  36   36 1047  389 FO
gr

gs 899 389 5357 4227 MR c np
1142 2502 PD
gs 1069 2429 147 147 MR c np
  36   36 1142 2502 FO
gr

1196 389 PD
gr

gs 1123 316 147 147 MR c np
  36   36 1196  389 FO
gr

gs 899 389 5357 4227 MR c np
36 1408 935 389 2 MP stroke
gr

gs 862 316 183 1555 MR c np
  36   36  935  389 FO
  36   36  971 1797 FO
gr

gs 899 389 5357 4227 MR c np
991 389 PD
gr

gs 918 316 147 147 MR c np
  36   36  991  389 FO
gr

gs 899 389 5357 4227 MR c np
989 389 PD
gr

gs 916 316 147 147 MR c np
  36   36  989  389 FO
gr

gs 899 389 5357 4227 MR c np
962 3558 PD
gr

gs 889 3485 147 147 MR c np
  36   36  962 3558 FO
gr

gs 899 389 5357 4227 MR c np
1568 389 PD
gr

gs 1495 316 147 147 MR c np
  36   36 1568  389 FO
gr

gs 899 389 5357 4227 MR c np
941 2502 PD
gr

gs 868 2429 147 147 MR c np
  36   36  941 2502 FO
gr

gs 899 389 5357 4227 MR c np
1233 389 PD
gr

gs 1160 316 147 147 MR c np
  36   36 1233  389 FO
gr

gs 899 389 5357 4227 MR c np
991 389 PD
gr

gs 918 316 147 147 MR c np
  36   36  991  389 FO
gr

gs 899 389 5357 4227 MR c np
1077 2502 PD
gs 1004 2429 147 147 MR c np
  36   36 1077 2502 FO
gr

920 389 PD
gr

gs 847 316 147 147 MR c np
  36   36  920  389 FO
gr

gs 899 389 5357 4227 MR c np
37 201 935 3206 2 MP stroke
gr

gs 862 3133 184 348 MR c np
  36   36  935 3206 FO
  36   36  972 3407 FO
gr

gs 899 389 5357 4227 MR c np
1004 2502 PD
gs 931 2429 147 147 MR c np
  36   36 1004 2502 FO
gr

1791 3206 PD
gs 1718 3133 147 147 MR c np
  36   36 1791 3206 FO
gr

1056 389 PD
gr

gs 983 316 147 147 MR c np
  36   36 1056  389 FO
gr

gs 899 389 5357 4227 MR c np
1036 3558 PD
gs 963 3485 147 147 MR c np
  36   36 1036 3558 FO
gr

924 389 PD
gr

gs 851 316 147 147 MR c np
  36   36  924  389 FO
gr

gs 899 389 5357 4227 MR c np
1097 389 PD
gr

gs 1024 316 147 147 MR c np
  36   36 1097  389 FO
gr

gs 899 389 5357 4227 MR c np
1180 389 PD
gr

gs 1107 316 147 147 MR c np
  36   36 1180  389 FO
gr

gs 899 389 5357 4227 MR c np
1166 3206 PD
gs 1093 3133 147 147 MR c np
  36   36 1166 3206 FO
gr

933 389 PD
gr

gs 860 316 147 147 MR c np
  36   36  933  389 FO
gr

gs 899 389 5357 4227 MR c np
947 389 PD
gr

gs 874 316 147 147 MR c np
  36   36  947  389 FO
gr

gs 899 389 5357 4227 MR c np
1083 389 PD
gr

gs 1010 316 147 147 MR c np
  36   36 1083  389 FO
gr

gs 899 389 5357 4227 MR c np
1052 389 PD
gr

gs 979 316 147 147 MR c np
  36   36 1052  389 FO
gr

gs 899 389 5357 4227 MR c np
938 2502 PD
gr

gs 865 2429 147 147 MR c np
  36   36  938 2502 FO
gr

gs 899 389 5357 4227 MR c np
996 389 PD
gr

gs 923 316 147 147 MR c np
  36   36  996  389 FO
gr

gs 899 389 5357 4227 MR c np
936 2502 PD
gr

gs 863 2429 147 147 MR c np
  36   36  936 2502 FO
gr

gs 899 389 5357 4227 MR c np
964 2502 PD
gr

gs 891 2429 147 147 MR c np
  36   36  964 2502 FO
gr

gs 899 389 5357 4227 MR c np
1142 3769 PD
gs 1069 3696 147 147 MR c np
  36   36 1142 3769 FO
gr

51 -352 51 -352 950 3910 3 MP stroke
gr

gs 877 3133 249 851 MR c np
  36   36  950 3910 FO
  36   36 1001 3558 FO
  36   36 1052 3206 FO
gr

gs 899 389 5357 4227 MR c np
3577 389 PD
gr

gs 3504 316 147 147 MR c np
  36   36 3577  389 FO
gr

gs 899 389 5357 4227 MR c np
967 3769 PD
gr

gs 894 3696 147 147 MR c np
  36   36  967 3769 FO
gr

gs 899 389 5357 4227 MR c np
924 2502 PD
gr

gs 851 2429 147 147 MR c np
  36   36  924 2502 FO
gr

gs 899 389 5357 4227 MR c np
1494 389 PD
gr

gs 1421 316 147 147 MR c np
  36   36 1494  389 FO
gr

gs 899 389 5357 4227 MR c np
3577 2502 PD
gs 3504 2429 147 147 MR c np
  36   36 3577 2502 FO
gr

938 389 PD
gr

gs 865 316 147 147 MR c np
  36   36  938  389 FO
gr

gs 899 389 5357 4227 MR c np
1791 389 PD
gr

gs 1718 316 147 147 MR c np
  36   36 1791  389 FO
gr

gs 899 389 5357 4227 MR c np
1180 389 PD
gr

gs 1107 316 147 147 MR c np
  36   36 1180  389 FO
gr

gs 899 389 5357 4227 MR c np
66 0 965 389 2 MP stroke
gr

gs 892 316 213 147 MR c np
  36   36  965  389 FO
  36   36 1031  389 FO
gr

gs 899 389 5357 4227 MR c np
1032 3206 PD
gs 959 3133 147 147 MR c np
  36   36 1032 3206 FO
gr

536 1799 1434 2502 2 MP stroke
gs 1361 2429 683 1946 MR c np
  36   36 1434 2502 FO
  36   36 1970 4301 FO
gr

976 3206 PD
gs 903 3133 147 147 MR c np
  36   36  976 3206 FO
gr

36 1408 934 389 2 MP stroke
gr

gs 861 316 183 1555 MR c np
  36   36  934  389 FO
  36   36  970 1797 FO
gr

gs 899 389 5357 4227 MR c np
70 2113 969 389 2 MP stroke
gr

gs 896 316 217 2260 MR c np
  36   36  969  389 FO
  36   36 1039 2502 FO
gr

gs 899 389 5357 4227 MR c np
24 0 923 389 2 MP stroke
gr

gs 850 316 171 147 MR c np
  36   36  923  389 FO
  36   36  947  389 FO
gr

gs 899 389 5357 4227 MR c np
1214 389 PD
gr

gs 1141 316 147 147 MR c np
  36   36 1214  389 FO
gr

gs 899 389 5357 4227 MR c np
1385 389 PD
gr

gs 1312 316 147 147 MR c np
  36   36 1385  389 FO
gr

gs 899 389 5357 4227 MR c np
1791 4011 PD
gs 1718 3938 147 147 MR c np
  36   36 1791 4011 FO
gr

925 389 PD
gr

gs 852 316 147 147 MR c np
  36   36  925  389 FO
gr

gs 899 389 5357 4227 MR c np
1023 389 PD
gr

gs 950 316 147 147 MR c np
  36   36 1023  389 FO
gr

gs 899 389 5357 4227 MR c np
47 0 946 389 2 MP stroke
gr

gs 873 316 194 147 MR c np
  36   36  946  389 FO
  36   36  993  389 FO
gr

gs 899 389 5357 4227 MR c np
85 34 85 117 984 3558 3 MP stroke
gs 911 3485 317 298 MR c np
  36   36  984 3558 FO
  36   36 1069 3675 FO
  36   36 1154 3709 FO
gr

2238 389 PD
gr

gs 2165 316 147 147 MR c np
  36   36 2238  389 FO
gr

gs 899 389 5357 4227 MR c np
105 1408 1004 389 2 MP stroke
gr

gs 931 316 252 1555 MR c np
  36   36 1004  389 FO
  36   36 1109 1797 FO
gr

gs 899 389 5357 4227 MR c np
1385 389 PD
gr

gs 1312 316 147 147 MR c np
  36   36 1385  389 FO
gr

gs 899 389 5357 4227 MR c np
16 -705 915 2502 2 MP stroke
gr

gs 842 1724 163 852 MR c np
  36   36  915 2502 FO
  36   36  931 1797 FO
gr

gs 899 389 5357 4227 MR c np
986 389 PD
gr

gs 913 316 147 147 MR c np
  36   36  986  389 FO
gr

gs 899 389 5357 4227 MR c np
996 3206 PD
gs 923 3133 147 147 MR c np
  36   36  996 3206 FO
gr

919 389 PD
gr

gs 846 316 147 147 MR c np
  36   36  919  389 FO
gr

gs 899 389 5357 4227 MR c np
938 389 PD
gr

gs 865 316 147 147 MR c np
  36   36  938  389 FO
gr

gs 899 389 5357 4227 MR c np
986 389 PD
gr

gs 913 316 147 147 MR c np
  36   36  986  389 FO
gr

gs 899 389 5357 4227 MR c np
50 1690 51 0 949 389 3 MP stroke
gr

gs 876 316 248 1837 MR c np
  36   36  949  389 FO
  36   36 1000  389 FO
  36   36 1050 2079 FO
gr

gs 899 389 5357 4227 MR c np
963 389 PD
gr

gs 890 316 147 147 MR c np
  36   36  963  389 FO
gr

gs 899 389 5357 4227 MR c np
1385 3206 PD
gs 1312 3133 147 147 MR c np
  36   36 1385 3206 FO
gr

2684 389 PD
gr

gs 2611 316 147 147 MR c np
  36   36 2684  389 FO
gr

gs 899 389 5357 4227 MR c np
946 389 PD
gr

gs 873 316 147 147 MR c np
  36   36  946  389 FO
gr

gs 899 389 5357 4227 MR c np
1131 4011 PD
gs 1058 3938 147 147 MR c np
  36   36 1131 4011 FO
gr

1002 4086 PD
gs 929 4013 147 147 MR c np
  36   36 1002 4086 FO
gr

1032 389 PD
gr

gs 959 316 147 147 MR c np
  36   36 1032  389 FO
gr

gs 899 389 5357 4227 MR c np
1664 389 PD
gr

gs 1591 316 147 147 MR c np
  36   36 1664  389 FO
gr

gs 899 389 5357 4227 MR c np
1066 389 PD
gr

gs 993 316 147 147 MR c np
  36   36 1066  389 FO
gr

gs 899 389 5357 4227 MR c np
1043 389 PD
gr

gs 970 316 147 147 MR c np
  36   36 1043  389 FO
gr

gs 899 389 5357 4227 MR c np
1002 389 PD
gr

gs 929 316 147 147 MR c np
  36   36 1002  389 FO
gr

gs 899 389 5357 4227 MR c np
923 3206 PD
gr

gs 850 3133 147 147 MR c np
  36   36  923 3206 FO
gr

gs 899 389 5357 4227 MR c np
1345 2502 PD
gs 1272 2429 147 147 MR c np
  36   36 1345 2502 FO
gr

167 352 1066 3206 2 MP stroke
gs 993 3133 314 499 MR c np
  36   36 1066 3206 FO
  36   36 1233 3558 FO
gr

975 2502 PD
gs 902 2429 147 147 MR c np
  36   36  975 2502 FO
gr

1664 389 PD
gr

gs 1591 316 147 147 MR c np
  36   36 1664  389 FO
gr

gs 899 389 5357 4227 MR c np
970 389 PD
gr

gs 897 316 147 147 MR c np
  36   36  970  389 FO
gr

gs 899 389 5357 4227 MR c np
934 3769 PD
gr

gs 861 3696 147 147 MR c np
  36   36  934 3769 FO
gr

gs 899 389 5357 4227 MR c np
1006 3558 PD
gs 933 3485 147 147 MR c np
  36   36 1006 3558 FO
gr

65 0 964 389 2 MP stroke
gr

gs 891 316 212 147 MR c np
  36   36  964  389 FO
  36   36 1029  389 FO
gr

gs 899 389 5357 4227 MR c np
994 2502 PD
gs 921 2429 147 147 MR c np
  36   36  994 2502 FO
gr

954 389 PD
gr

gs 881 316 147 147 MR c np
  36   36  954  389 FO
gr

gs 899 389 5357 4227 MR c np
1385 389 PD
gr

gs 1312 316 147 147 MR c np
  36   36 1385  389 FO
gr

gs 899 389 5357 4227 MR c np
1281 389 PD
gr

gs 1208 316 147 147 MR c np
  36   36 1281  389 FO
gr

gs 899 389 5357 4227 MR c np
2684 3206 PD
gs 2611 3133 147 147 MR c np
  36   36 2684 3206 FO
gr

1664 2502 PD
gs 1591 2429 147 147 MR c np
  36   36 1664 2502 FO
gr

1154 389 PD
gr

gs 1081 316 147 147 MR c np
  36   36 1154  389 FO
gr

gs 899 389 5357 4227 MR c np
1000 3206 PD
gs 927 3133 147 147 MR c np
  36   36 1000 3206 FO
gr

1154 2502 PD
gs 1081 2429 147 147 MR c np
  36   36 1154 2502 FO
gr

998 389 PD
gr

gs 925 316 147 147 MR c np
  36   36  998  389 FO
gr

gs 899 389 5357 4227 MR c np
141 -634 1039 3558 2 MP stroke
gs 966 2851 288 781 MR c np
  36   36 1039 3558 FO
  36   36 1180 2924 FO
gr

1047 3206 PD
gs 974 3133 147 147 MR c np
  36   36 1047 3206 FO
gr

910 389 PD
gr

gs 837 316 147 147 MR c np
  36   36  910  389 FO
gr

gs 899 389 5357 4227 MR c np
919 3206 PD
gr

gs 846 3133 147 147 MR c np
  36   36  919 3206 FO
gr

gs 899 389 5357 4227 MR c np
986 2502 PD
gs 913 2429 147 147 MR c np
  36   36  986 2502 FO
gr

1791 389 PD
gr

gs 1718 316 147 147 MR c np
  36   36 1791  389 FO
gr

gs 899 389 5357 4227 MR c np
948 389 PD
gr

gs 875 316 147 147 MR c np
  36   36  948  389 FO
gr

gs 899 389 5357 4227 MR c np
1166 2502 PD
gs 1093 2429 147 147 MR c np
  36   36 1166 2502 FO
gr

919 4366 PD
gr

gs 846 4293 147 147 MR c np
  36   36  919 4366 FO
gr

gs 899 389 5357 4227 MR c np
39 -282 938 3206 2 MP stroke
gr

gs 865 2851 186 429 MR c np
  36   36  938 3206 FO
  36   36  977 2924 FO
gr

gs 899 389 5357 4227 MR c np
988 3558 PD
gs 915 3485 147 147 MR c np
  36   36  988 3558 FO
gr

21 0 920 389 2 MP stroke
gr

gs 847 316 168 147 MR c np
  36   36  920  389 FO
  36   36  941  389 FO
gr

gs 899 389 5357 4227 MR c np
1008 4313 PD
gs 935 4240 147 147 MR c np
  36   36 1008 4313 FO
gr

1105 3206 PD
gs 1032 3133 147 147 MR c np
  36   36 1105 3206 FO
gr

2684 3206 PD
gs 2611 3133 147 147 MR c np
  36   36 2684 3206 FO
gr

1154 389 PD
gr

gs 1081 316 147 147 MR c np
  36   36 1154  389 FO
gr

gs 899 389 5357 4227 MR c np
2238 389 PD
gr

gs 2165 316 147 147 MR c np
  36   36 2238  389 FO
gr

gs 899 389 5357 4227 MR c np
1664 4474 PD
gs 1591 4401 147 147 MR c np
  36   36 1664 4474 FO
gr

1083 389 PD
gr

gs 1010 316 147 147 MR c np
  36   36 1083  389 FO
gr

gs 899 389 5357 4227 MR c np
1568 4333 PD
gs 1495 4260 147 147 MR c np
  36   36 1568 4333 FO
gr

941 389 PD
gr

gs 868 316 147 147 MR c np
  36   36  941  389 FO
gr

gs 899 389 5357 4227 MR c np
944 389 PD
gr

gs 871 316 147 147 MR c np
  36   36  944  389 FO
gr

gs 899 389 5357 4227 MR c np
6255 3206 PD
gr

gs 6182 3133 147 147 MR c np
  36   36 6255 3206 FO
gr

gs 899 389 5357 4227 MR c np
1083 389 PD
gr

gs 1010 316 147 147 MR c np
  36   36 1083  389 FO
gr

gs 899 389 5357 4227 MR c np
1026 2502 PD
gs 953 2429 147 147 MR c np
  36   36 1026 2502 FO
gr

1664 4431 PD
gs 1591 4358 147 147 MR c np
  36   36 1664 4431 FO
gr

1233 389 PD
gr

gs 1160 316 147 147 MR c np
  36   36 1233  389 FO
gr

gs 899 389 5357 4227 MR c np
938 389 PD
gr

gs 865 316 147 147 MR c np
  36   36  938  389 FO
gr

gs 899 389 5357 4227 MR c np
44 511 43 2414 44 0 942 389 4 MP stroke
gr

gs 869 316 278 3072 MR c np
  36   36  942  389 FO
  36   36  986  389 FO
  36   36 1029 2803 FO
  36   36 1073 3314 FO
gr

gs 899 389 5357 4227 MR c np
916 389 PD
gr

gs 843 316 147 147 MR c np
  36   36  916  389 FO
gr

gs 899 389 5357 4227 MR c np
1196 389 PD
gr

gs 1123 316 147 147 MR c np
  36   36 1196  389 FO
gr

gs 899 389 5357 4227 MR c np
925 389 PD
gr

gs 852 316 147 147 MR c np
  36   36  925  389 FO
gr

gs 899 389 5357 4227 MR c np
938 389 PD
gr

gs 865 316 147 147 MR c np
  36   36  938  389 FO
gr

gs 899 389 5357 4227 MR c np
1071 2502 PD
gs 998 2429 147 147 MR c np
  36   36 1071 2502 FO
gr

1166 2502 PD
gs 1093 2429 147 147 MR c np
  36   36 1166 2502 FO
gr

1180 3206 PD
gs 1107 3133 147 147 MR c np
  36   36 1180 3206 FO
gr

6255 389 PD
gr

gs 6182 316 147 147 MR c np
  36   36 6255  389 FO
gr

gs 899 389 5357 4227 MR c np
3 0 2 0 3 0 901 389 4 MP stroke
gr

gs 828 316 155 147 MR c np
  36   36  901  389 FO
  36   36  904  389 FO
  36   36  906  389 FO
  36   36  909  389 FO
gr

gs 899 389 5357 4227 MR c np
921 2502 PD
gr

gs 848 2429 147 147 MR c np
  36   36  921 2502 FO
gr

gs 899 389 5357 4227 MR c np
1166 2502 PD
gs 1093 2429 147 147 MR c np
  36   36 1166 2502 FO
gr

1036 389 PD
gr

gs 963 316 147 147 MR c np
  36   36 1036  389 FO
gr

gs 899 389 5357 4227 MR c np
954 389 PD
gr

gs 881 316 147 147 MR c np
  36   36  954  389 FO
gr

gs 899 389 5357 4227 MR c np
1154 389 PD
gr

gs 1081 316 147 147 MR c np
  36   36 1154  389 FO
gr

gs 899 389 5357 4227 MR c np
1791 3206 PD
gs 1718 3133 147 147 MR c np
  36   36 1791 3206 FO
gr

gr

3409 4903 mt 
(Recall) s
 616 2750 mt  -90 rotate
(Precision) s
90 rotate
gs 899 389 5357 4227 MR c np
931 2502 PD
gr

gs 858 2429 147 147 MR c np
  36   36  931 2502 FO
gr

gs 899 389 5357 4227 MR c np
1385 2502 PD
gs 1312 2429 147 147 MR c np
  36   36 1385 2502 FO
gr

223 0 1122 389 2 MP stroke
gr

gs 1049 316 370 147 MR c np
  36   36 1122  389 FO
  36   36 1345  389 FO
gr

gs 899 389 5357 4227 MR c np
938 389 PD
gr

gs 865 316 147 147 MR c np
  36   36  938  389 FO
gr

gs 899 389 5357 4227 MR c np
1002 389 PD
gr

gs 929 316 147 147 MR c np
  36   36 1002  389 FO
gr

gs 899 389 5357 4227 MR c np
1791 389 PD
gr

gs 1718 316 147 147 MR c np
  36   36 1791  389 FO
gr

gs 899 389 5357 4227 MR c np
950 3206 PD
gr

gs 877 3133 147 147 MR c np
  36   36  950 3206 FO
gr

gs 899 389 5357 4227 MR c np
1664 389 PD
gr

gs 1591 316 147 147 MR c np
  36   36 1664  389 FO
gr

gs 899 389 5357 4227 MR c np
1018 389 PD
gr

gs 945 316 147 147 MR c np
  36   36 1018  389 FO
gr

gs 899 389 5357 4227 MR c np
1256 389 PD
gr

gs 1183 316 147 147 MR c np
  36   36 1256  389 FO
gr

gs 899 389 5357 4227 MR c np
1010 389 PD
gr

gs 937 316 147 147 MR c np
  36   36 1010  389 FO
gr

gs 899 389 5357 4227 MR c np
981 3206 PD
gs 908 3133 147 147 MR c np
  36   36  981 3206 FO
gr

18 0 917 389 2 MP stroke
gr

gs 844 316 165 147 MR c np
  36   36  917  389 FO
  36   36  935  389 FO
gr

gs 899 389 5357 4227 MR c np
949 389 PD
gr

gs 876 316 147 147 MR c np
  36   36  949  389 FO
gr

gs 899 389 5357 4227 MR c np
972 389 PD
gr

gs 899 316 147 147 MR c np
  36   36  972  389 FO
gr

gs 899 389 5357 4227 MR c np
982 389 PD
gr

gs 909 316 147 147 MR c np
  36   36  982  389 FO
gr

gs 899 389 5357 4227 MR c np
958 389 PD
gr

gs 885 316 147 147 MR c np
  36   36  958  389 FO
gr

gs 899 389 5357 4227 MR c np
1061 2502 PD
gs 988 2429 147 147 MR c np
  36   36 1061 2502 FO
gr

1131 2502 PD
gs 1058 2429 147 147 MR c np
  36   36 1131 2502 FO
gr

1043 389 PD
gr

gs 970 316 147 147 MR c np
  36   36 1043  389 FO
gr

gs 899 389 5357 4227 MR c np
1071 2502 PD
gs 998 2429 147 147 MR c np
  36   36 1071 2502 FO
gr

167 0 1066 3206 2 MP stroke
gs 993 3133 314 147 MR c np
  36   36 1066 3206 FO
  36   36 1233 3206 FO
gr

1066 2502 PD
gs 993 2429 147 147 MR c np
  36   36 1066 2502 FO
gr

914 389 PD
gr

gs 841 316 147 147 MR c np
  36   36  914  389 FO
gr

gs 899 389 5357 4227 MR c np
1131 389 PD
gr

gs 1058 316 147 147 MR c np
  36   36 1131  389 FO
gr

gs 899 389 5357 4227 MR c np
910 389 PD
gr

gs 837 316 147 147 MR c np
  36   36  910  389 FO
gr

gs 899 389 5357 4227 MR c np
1434 2502 PD
gs 1361 2429 147 147 MR c np
  36   36 1434 2502 FO
gr

1568 2502 PD
gs 1495 2429 147 147 MR c np
  36   36 1568 2502 FO
gr

1311 2502 PD
gs 1238 2429 147 147 MR c np
  36   36 1311 2502 FO
gr

1791 389 PD
gr

gs 1718 316 147 147 MR c np
  36   36 1791  389 FO
gr

gs 899 389 5357 4227 MR c np
1256 3206 PD
gs 1183 3133 147 147 MR c np
  36   36 1256 3206 FO
gr

1142 3910 PD
gs 1069 3837 147 147 MR c np
  36   36 1142 3910 FO
gr

943 389 PD
gr

gs 870 316 147 147 MR c np
  36   36  943  389 FO
gr

gs 899 389 5357 4227 MR c np
86 -704 985 3206 2 MP stroke
gs 912 2429 233 851 MR c np
  36   36  985 3206 FO
  36   36 1071 2502 FO
gr

1090 389 PD
gr

gs 1017 316 147 147 MR c np
  36   36 1090  389 FO
gr

gs 899 389 5357 4227 MR c np
994 389 PD
gr

gs 921 316 147 147 MR c np
  36   36  994  389 FO
gr

gs 899 389 5357 4227 MR c np
989 389 PD
gr

gs 916 316 147 147 MR c np
  36   36  989  389 FO
gr

gs 899 389 5357 4227 MR c np
918 3206 PD
gr

gs 845 3133 147 147 MR c np
  36   36  918 3206 FO
gr

gs 899 389 5357 4227 MR c np
77 -705 975 2502 2 MP stroke
gs 902 1724 224 852 MR c np
  36   36  975 2502 FO
  36   36 1052 1797 FO
gr

3577 4540 PD
gs 3504 4467 147 147 MR c np
  36   36 3577 4540 FO
gr

1664 389 PD
gr

gs 1591 316 147 147 MR c np
  36   36 1664  389 FO
gr

gs 899 389 5357 4227 MR c np
948 2502 PD
gr

gs 875 2429 147 147 MR c np
  36   36  948 2502 FO
gr

gs 899 389 5357 4227 MR c np
920 2502 PD
gr

gs 847 2429 147 147 MR c np
  36   36  920 2502 FO
gr

gs 899 389 5357 4227 MR c np
988 3206 PD
gs 915 3133 147 147 MR c np
  36   36  988 3206 FO
gr

1494 389 PD
gr

gs 1421 316 147 147 MR c np
  36   36 1494  389 FO
gr

gs 899 389 5357 4227 MR c np
1032 2502 PD
gs 959 2429 147 147 MR c np
  36   36 1032 2502 FO
gr

1311 389 PD
gr

gs 1238 316 147 147 MR c np
  36   36 1311  389 FO
gr

gs 899 389 5357 4227 MR c np
927 389 PD
gr

gs 854 316 147 147 MR c np
  36   36  927  389 FO
gr

gs 899 389 5357 4227 MR c np
931 2502 PD
gr

gs 858 2429 147 147 MR c np
  36   36  931 2502 FO
gr

gs 899 389 5357 4227 MR c np
64 0 962 389 2 MP stroke
gr

gs 889 316 211 147 MR c np
  36   36  962  389 FO
  36   36 1026  389 FO
gr

gs 899 389 5357 4227 MR c np
953 389 PD
gr

gs 880 316 147 147 MR c np
  36   36  953  389 FO
gr

gs 899 389 5357 4227 MR c np
64 12 962 4289 2 MP stroke
gr

gs 889 4216 211 159 MR c np
  36   36  962 4289 FO
  36   36 1026 4301 FO
gr

gs 899 389 5357 4227 MR c np
1113 2502 PD
gs 1040 2429 147 147 MR c np
  36   36 1113 2502 FO
gr

1052 389 PD
gr

gs 979 316 147 147 MR c np
  36   36 1052  389 FO
gr

gs 899 389 5357 4227 MR c np
1664 389 PD
gr

gs 1591 316 147 147 MR c np
  36   36 1664  389 FO
gr

gs 899 389 5357 4227 MR c np
1568 2502 PD
gs 1495 2429 147 147 MR c np
  36   36 1568 2502 FO
gr

923 3206 PD
gr

gs 850 3133 147 147 MR c np
  36   36  923 3206 FO
gr

gs 899 389 5357 4227 MR c np
71 1267 70 0 969 2502 3 MP stroke
gr

gs 896 2429 288 1414 MR c np
  36   36  969 2502 FO
  36   36 1039 2502 FO
  36   36 1110 3769 FO
gr

gs 899 389 5357 4227 MR c np
959 3206 PD
gr

gs 886 3133 147 147 MR c np
  36   36  959 3206 FO
gr

gs 899 389 5357 4227 MR c np
765 1056 765 0 1664 389 3 MP stroke
gr

gs 1591 316 1677 1203 MR c np
  36   36 1664  389 FO
  36   36 2429  389 FO
  36   36 3194 1445 FO
gr

gs 899 389 5357 4227 MR c np
1142 3558 PD
gs 1069 3485 147 147 MR c np
  36   36 1142 3558 FO
gr

1043 389 PD
gr

gs 970 316 147 147 MR c np
  36   36 1043  389 FO
gr

gs 899 389 5357 4227 MR c np
1568 389 PD
gr

gs 1495 316 147 147 MR c np
  36   36 1568  389 FO
gr

gs 899 389 5357 4227 MR c np
939 389 PD
gr

gs 866 316 147 147 MR c np
  36   36  939  389 FO
gr

gs 899 389 5357 4227 MR c np
47 0 945 389 2 MP stroke
gr

gs 872 316 194 147 MR c np
  36   36  945  389 FO
  36   36  992  389 FO
gr

gs 899 389 5357 4227 MR c np
1970 3206 PD
gs 1897 3133 147 147 MR c np
  36   36 1970 3206 FO
gr

1154 389 PD
gr

gs 1081 316 147 147 MR c np
  36   36 1154  389 FO
gr

gs 899 389 5357 4227 MR c np
1434 2502 PD
gs 1361 2429 147 147 MR c np
  36   36 1434 2502 FO
gr

1026 389 PD
gr

gs 953 316 147 147 MR c np
  36   36 1026  389 FO
gr

gs 899 389 5357 4227 MR c np
67 0 965 389 2 MP stroke
gr

gs 892 316 214 147 MR c np
  36   36  965  389 FO
  36   36 1032  389 FO
gr

gs 899 389 5357 4227 MR c np
982 3558 PD
gs 909 3485 147 147 MR c np
  36   36  982 3558 FO
gr

1233 389 PD
gr

gs 1160 316 147 147 MR c np
  36   36 1233  389 FO
gr

gs 899 389 5357 4227 MR c np
905 3206 PD
gr

gs 832 3133 147 147 MR c np
  36   36  905 3206 FO
gr

gs 899 389 5357 4227 MR c np
918 3206 PD
gr

gs 845 3133 147 147 MR c np
  36   36  918 3206 FO
gr

gs 899 389 5357 4227 MR c np
975 389 PD
gr

gs 902 316 147 147 MR c np
  36   36  975  389 FO
gr

gs 899 389 5357 4227 MR c np
1180 389 PD
gr

gs 1107 316 147 147 MR c np
  36   36 1180  389 FO
gr

gs 899 389 5357 4227 MR c np
16 2113 914 389 2 MP stroke
gr

gs 841 316 163 2260 MR c np
  36   36  914  389 FO
  36   36  930 2502 FO
gr

gs 899 389 5357 4227 MR c np
1142 2502 PD
gs 1069 2429 147 147 MR c np
  36   36 1142 2502 FO
gr

936 3206 PD
gr

gs 863 3133 147 147 MR c np
  36   36  936 3206 FO
gr

gs 899 389 5357 4227 MR c np
1071 3769 PD
gs 998 3696 147 147 MR c np
  36   36 1071 3769 FO
gr

1664 3206 PD
gs 1591 3133 147 147 MR c np
  36   36 1664 3206 FO
gr

1122 389 PD
gr

gs 1049 316 147 147 MR c np
  36   36 1122  389 FO
gr

gs 899 389 5357 4227 MR c np
991 3206 PD
gs 918 3133 147 147 MR c np
  36   36  991 3206 FO
gr

1039 3558 PD
gs 966 3485 147 147 MR c np
  36   36 1039 3558 FO
gr

929 389 PD
gr

gs 856 316 147 147 MR c np
  36   36  929  389 FO
gr

gs 899 389 5357 4227 MR c np
1012 2502 PD
gs 939 2429 147 147 MR c np
  36   36 1012 2502 FO
gr

940 2502 PD
gr

gs 867 2429 147 147 MR c np
  36   36  940 2502 FO
gr

gs 899 389 5357 4227 MR c np
1113 2502 PD
gs 1040 2429 147 147 MR c np
  36   36 1113 2502 FO
gr

1015 2502 PD
gs 942 2429 147 147 MR c np
  36   36 1015 2502 FO
gr

335 1408 1233 389 2 MP stroke
gr

gs 1160 316 482 1555 MR c np
  36   36 1233  389 FO
  36   36 1568 1797 FO
gr

gs 899 389 5357 4227 MR c np
2684 3206 PD
gs 2611 3133 147 147 MR c np
  36   36 2684 3206 FO
gr

6255 2502 PD
gr

gs 6182 2429 147 147 MR c np
  36   36 6255 2502 FO
gr

gs 899 389 5357 4227 MR c np
972 389 PD
gr

gs 899 316 147 147 MR c np
  36   36  972  389 FO
gr

gs 899 389 5357 4227 MR c np
977 3206 PD
gs 904 3133 147 147 MR c np
  36   36  977 3206 FO
gr

992 389 PD
gr

gs 919 316 147 147 MR c np
  36   36  992  389 FO
gr

gs 899 389 5357 4227 MR c np
946 389 PD
gr

gs 873 316 147 147 MR c np
  36   36  946  389 FO
gr

gs 899 389 5357 4227 MR c np
994 389 PD
gr

gs 921 316 147 147 MR c np
  36   36  994  389 FO
gr

gs 899 389 5357 4227 MR c np
1385 2502 PD
gs 1312 2429 147 147 MR c np
  36   36 1385 2502 FO
gr

3577 389 PD
gr

gs 3504 316 147 147 MR c np
  36   36 3577  389 FO
gr

gs 899 389 5357 4227 MR c np
922 2502 PD
gr

gs 849 2429 147 147 MR c np
  36   36  922 2502 FO
gr

gs 899 389 5357 4227 MR c np
944 389 PD
gr

gs 871 316 147 147 MR c np
  36   36  944  389 FO
gr

gs 899 389 5357 4227 MR c np
934 3558 PD
gr

gs 861 3485 147 147 MR c np
  36   36  934 3558 FO
gr

gs 899 389 5357 4227 MR c np
1154 389 PD
gr

gs 1081 316 147 147 MR c np
  36   36 1154  389 FO
gr

gs 899 389 5357 4227 MR c np
1032 2502 PD
gs 959 2429 147 147 MR c np
  36   36 1032 2502 FO
gr

954 3206 PD
gr

gs 881 3133 147 147 MR c np
  36   36  954 3206 FO
gr

gs 899 389 5357 4227 MR c np
984 2502 PD
gs 911 2429 147 147 MR c np
  36   36  984 2502 FO
gr

927 389 PD
gr

gs 854 316 147 147 MR c np
  36   36  927  389 FO
gr

gs 899 389 5357 4227 MR c np
969 2502 PD
gr

gs 896 2429 147 147 MR c np
  36   36  969 2502 FO
gr

gs 899 389 5357 4227 MR c np
916 2502 PD
gr

gs 843 2429 147 147 MR c np
  36   36  916 2502 FO
gr

gs 899 389 5357 4227 MR c np
951 3558 PD
gr

gs 878 3485 147 147 MR c np
  36   36  951 3558 FO
gr

gs 899 389 5357 4227 MR c np
1071 3558 PD
gs 998 3485 147 147 MR c np
  36   36 1071 3558 FO
gr

1154 2502 PD
gs 1081 2429 147 147 MR c np
  36   36 1154 2502 FO
gr

1142 389 PD
gr

gs 1069 316 147 147 MR c np
  36   36 1142  389 FO
gr

gs 899 389 5357 4227 MR c np
1032 389 PD
gr

gs 959 316 147 147 MR c np
  36   36 1032  389 FO
gr

gs 899 389 5357 4227 MR c np
960 389 PD
gr

gs 887 316 147 147 MR c np
  36   36  960  389 FO
gr

gs 899 389 5357 4227 MR c np
21 0 919 389 2 MP stroke
gr

gs 846 316 168 147 MR c np
  36   36  919  389 FO
  36   36  940  389 FO
gr

gs 899 389 5357 4227 MR c np
1568 389 PD
gr

gs 1495 316 147 147 MR c np
  36   36 1568  389 FO
gr

gs 899 389 5357 4227 MR c np
1434 389 PD
gr

gs 1361 316 147 147 MR c np
  36   36 1434  389 FO
gr

gs 899 389 5357 4227 MR c np
1026 2502 PD
gs 953 2429 147 147 MR c np
  36   36 1026 2502 FO
gr

916 389 PD
gr

gs 843 316 147 147 MR c np
  36   36  916  389 FO
gr

gs 899 389 5357 4227 MR c np
179 1408 1077 389 2 MP stroke
gr

gs 1004 316 326 1555 MR c np
  36   36 1077  389 FO
  36   36 1256 1797 FO
gr

gs 899 389 5357 4227 MR c np
945 2502 PD
gr

gs 872 2429 147 147 MR c np
  36   36  945 2502 FO
gr

gs 899 389 5357 4227 MR c np
917 389 PD
gr

gs 844 316 147 147 MR c np
  36   36  917  389 FO
gr

gs 899 389 5357 4227 MR c np
956 3769 PD
gr

gs 883 3696 147 147 MR c np
  36   36  956 3769 FO
gr

gs 899 389 5357 4227 MR c np
1281 389 PD
gr

gs 1208 316 147 147 MR c np
  36   36 1281  389 FO
gr

gs 899 389 5357 4227 MR c np
1568 2502 PD
gs 1495 2429 147 147 MR c np
  36   36 1568 2502 FO
gr

963 2502 PD
gr

gs 890 2429 147 147 MR c np
  36   36  963 2502 FO
gr

gs 899 389 5357 4227 MR c np
980 2502 PD
gs 907 2429 147 147 MR c np
  36   36  980 2502 FO
gr

986 389 PD
gr

gs 913 316 147 147 MR c np
  36   36  986  389 FO
gr

gs 899 389 5357 4227 MR c np
1568 3206 PD
gs 1495 3133 147 147 MR c np
  36   36 1568 3206 FO
gr

1061 3206 PD
gs 988 3133 147 147 MR c np
  36   36 1061 3206 FO
gr

905 3558 PD
gr

gs 832 3485 147 147 MR c np
  36   36  905 3558 FO
gr

gs 899 389 5357 4227 MR c np
989 389 PD
gr

gs 916 316 147 147 MR c np
  36   36  989  389 FO
gr

gs 899 389 5357 4227 MR c np
28 1408 926 389 2 MP stroke
gr

gs 853 316 175 1555 MR c np
  36   36  926  389 FO
  36   36  954 1797 FO
gr

gs 899 389 5357 4227 MR c np
26 0 925 389 2 MP stroke
gr

gs 852 316 173 147 MR c np
  36   36  925  389 FO
  36   36  951  389 FO
gr

gs 899 389 5357 4227 MR c np
956 3206 PD
gr

gs 883 3133 147 147 MR c np
  36   36  956 3206 FO
gr

gs 899 389 5357 4227 MR c np
992 2502 PD
gs 919 2429 147 147 MR c np
  36   36  992 2502 FO
gr

1047 389 PD
gr

gs 974 316 147 147 MR c np
  36   36 1047  389 FO
gr

gs 899 389 5357 4227 MR c np
985 389 PD
gr

gs 912 316 147 147 MR c np
  36   36  985  389 FO
gr

gs 899 389 5357 4227 MR c np
21 0 21 0 920 389 3 MP stroke
gr

gs 847 316 189 147 MR c np
  36   36  920  389 FO
  36   36  941  389 FO
  36   36  962  389 FO
gr

gs 899 389 5357 4227 MR c np
1281 2502 PD
gs 1208 2429 147 147 MR c np
  36   36 1281 2502 FO
gr

1097 389 PD
gr

gs 1024 316 147 147 MR c np
  36   36 1097  389 FO
gr

gs 899 389 5357 4227 MR c np
1097 389 PD
gr

gs 1024 316 147 147 MR c np
  36   36 1097  389 FO
gr

gs 899 389 5357 4227 MR c np
2238 389 PD
gr

gs 2165 316 147 147 MR c np
  36   36 2238  389 FO
gr

gs 899 389 5357 4227 MR c np
934 2502 PD
gr

gs 861 2429 147 147 MR c np
  36   36  934 2502 FO
gr

gs 899 389 5357 4227 MR c np
1142 389 PD
gr

gs 1069 316 147 147 MR c np
  36   36 1142  389 FO
gr

gs 899 389 5357 4227 MR c np
1023 3206 PD
gs 950 3133 147 147 MR c np
  36   36 1023 3206 FO
gr

1233 2502 PD
gs 1160 2429 147 147 MR c np
  36   36 1233 2502 FO
gr

1256 389 PD
gr

gs 1183 316 147 147 MR c np
  36   36 1256  389 FO
gr

gs 899 389 5357 4227 MR c np
937 389 PD
gr

gs 864 316 147 147 MR c np
  36   36  937  389 FO
gr

gs 899 389 5357 4227 MR c np
927 389 PD
gr

gs 854 316 147 147 MR c np
  36   36  927  389 FO
gr

gs 899 389 5357 4227 MR c np
1020 389 PD
gr

gs 947 316 147 147 MR c np
  36   36 1020  389 FO
gr

gs 899 389 5357 4227 MR c np
980 389 PD
gr

gs 907 316 147 147 MR c np
  36   36  980  389 FO
gr

gs 899 389 5357 4227 MR c np
984 2502 PD
gs 911 2429 147 147 MR c np
  36   36  984 2502 FO
gr

985 389 PD
gr

gs 912 316 147 147 MR c np
  36   36  985  389 FO
gr

gs 899 389 5357 4227 MR c np
1970 389 PD
gr

gs 1897 316 147 147 MR c np
  36   36 1970  389 FO
gr

gs 899 389 5357 4227 MR c np
1233 389 PD
gr

gs 1160 316 147 147 MR c np
  36   36 1233  389 FO
gr

gs 899 389 5357 4227 MR c np
933 389 PD
gr

gs 860 316 147 147 MR c np
  36   36  933  389 FO
gr

gs 899 389 5357 4227 MR c np
950 2502 PD
gr

gs 877 2429 147 147 MR c np
  36   36  950 2502 FO
gr

gs 899 389 5357 4227 MR c np
1097 389 PD
gr

gs 1024 316 147 147 MR c np
  36   36 1097  389 FO
gr

gs 899 389 5357 4227 MR c np
1122 3206 PD
gs 1049 3133 147 147 MR c np
  36   36 1122 3206 FO
gr

1122 389 PD
gr

gs 1049 316 147 147 MR c np
  36   36 1122  389 FO
gr

gs 899 389 5357 4227 MR c np
956 2502 PD
gr

gs 883 2429 147 147 MR c np
  36   36  956 2502 FO
gr

gs 899 389 5357 4227 MR c np
1056 389 PD
gr

gs 983 316 147 147 MR c np
  36   36 1056  389 FO
gr

gs 899 389 5357 4227 MR c np
966 2502 PD
gr

gs 893 2429 147 147 MR c np
  36   36  966 2502 FO
gr

gs 899 389 5357 4227 MR c np
6255 389 PD
gr

gs 6182 316 147 147 MR c np
  36   36 6255  389 FO
gr

gs 899 389 5357 4227 MR c np
1154 389 PD
gr

gs 1081 316 147 147 MR c np
  36   36 1154  389 FO
gr

gs 899 389 5357 4227 MR c np
916 3558 PD
gr

gs 843 3485 147 147 MR c np
  36   36  916 3558 FO
gr

gs 899 389 5357 4227 MR c np
919 2502 PD
gr

gs 846 2429 147 147 MR c np
  36   36  919 2502 FO
gr

gs 899 389 5357 4227 MR c np
977 389 PD
gr

gs 904 316 147 147 MR c np
  36   36  977  389 FO
gr

gs 899 389 5357 4227 MR c np
989 3769 PD
gs 916 3696 147 147 MR c np
  36   36  989 3769 FO
gr

2238 389 PD
gr

gs 2165 316 147 147 MR c np
  36   36 2238  389 FO
gr

gs 899 389 5357 4227 MR c np
955 389 PD
gr

gs 882 316 147 147 MR c np
  36   36  955  389 FO
gr

gs 899 389 5357 4227 MR c np
944 2502 PD
gr

gs 871 2429 147 147 MR c np
  36   36  944 2502 FO
gr

gs 899 389 5357 4227 MR c np
1568 389 PD
gr

gs 1495 316 147 147 MR c np
  36   36 1568  389 FO
gr

gs 899 389 5357 4227 MR c np
931 389 PD
gr

gs 858 316 147 147 MR c np
  36   36  931  389 FO
gr

gs 899 389 5357 4227 MR c np
3577 389 PD
gr

gs 3504 316 147 147 MR c np
  36   36 3577  389 FO
gr

gs 899 389 5357 4227 MR c np
1311 4230 PD
gs 1238 4157 147 147 MR c np
  36   36 1311 4230 FO
gr

1071 389 PD
gr

gs 998 316 147 147 MR c np
  36   36 1071  389 FO
gr

gs 899 389 5357 4227 MR c np
1791 389 PD
gr

gs 1718 316 147 147 MR c np
  36   36 1791  389 FO
gr

gs 899 389 5357 4227 MR c np
1434 389 PD
gr

gs 1361 316 147 147 MR c np
  36   36 1434  389 FO
gr

gs 899 389 5357 4227 MR c np
919 389 PD
gr

gs 846 316 147 147 MR c np
  36   36  919  389 FO
gr

gs 899 389 5357 4227 MR c np
1256 2502 PD
gs 1183 2429 147 147 MR c np
  36   36 1256 2502 FO
gr

2238 389 PD
gr

gs 2165 316 147 147 MR c np
  36   36 2238  389 FO
gr

gs 899 389 5357 4227 MR c np
1052 389 PD
gr

gs 979 316 147 147 MR c np
  36   36 1052  389 FO
gr

gs 899 389 5357 4227 MR c np
1233 389 PD
gr

gs 1160 316 147 147 MR c np
  36   36 1233  389 FO
gr

gs 899 389 5357 4227 MR c np
28 -705 927 2502 2 MP stroke
gr

gs 854 1724 175 852 MR c np
  36   36  927 2502 FO
  36   36  955 1797 FO
gr

gs 899 389 5357 4227 MR c np
85 0 984 389 2 MP stroke
gr

gs 911 316 232 147 MR c np
  36   36  984  389 FO
  36   36 1069  389 FO
gr

gs 899 389 5357 4227 MR c np
985 389 PD
gr

gs 912 316 147 147 MR c np
  36   36  985  389 FO
gr

gs 899 389 5357 4227 MR c np
1791 389 PD
gr

gs 1718 316 147 147 MR c np
  36   36 1791  389 FO
gr

gs 899 389 5357 4227 MR c np
1032 389 PD
gr

gs 959 316 147 147 MR c np
  36   36 1032  389 FO
gr

gs 899 389 5357 4227 MR c np
934 2502 PD
gr

gs 861 2429 147 147 MR c np
  36   36  934 2502 FO
gr

gs 899 389 5357 4227 MR c np
936 389 PD
gr

gs 863 316 147 147 MR c np
  36   36  936  389 FO
gr

gs 899 389 5357 4227 MR c np
954 2502 PD
gr

gs 881 2429 147 147 MR c np
  36   36  954 2502 FO
gr

gs 899 389 5357 4227 MR c np
1071 3558 PD
gs 998 3485 147 147 MR c np
  36   36 1071 3558 FO
gr

946 389 PD
gr

gs 873 316 147 147 MR c np
  36   36  946  389 FO
gr

gs 899 389 5357 4227 MR c np
924 389 PD
gr

gs 851 316 147 147 MR c np
  36   36  924  389 FO
gr

gs 899 389 5357 4227 MR c np
1043 389 PD
gr

gs 970 316 147 147 MR c np
  36   36 1043  389 FO
gr

gs 899 389 5357 4227 MR c np
961 389 PD
gr

gs 888 316 147 147 MR c np
  36   36  961  389 FO
gr

gs 899 389 5357 4227 MR c np
2238 2502 PD
gs 2165 2429 147 147 MR c np
  36   36 2238 2502 FO
gr

985 389 PD
gr

gs 912 316 147 147 MR c np
  36   36  985  389 FO
gr

gs 899 389 5357 4227 MR c np
1043 3558 PD
gs 970 3485 147 147 MR c np
  36   36 1043 3558 FO
gr

921 389 PD
gr

gs 848 316 147 147 MR c np
  36   36  921  389 FO
gr

gs 899 389 5357 4227 MR c np
954 389 PD
gr

gs 881 316 147 147 MR c np
  36   36  954  389 FO
gr

gs 899 389 5357 4227 MR c np
1004 389 PD
gr

gs 931 316 147 147 MR c np
  36   36 1004  389 FO
gr

gs 899 389 5357 4227 MR c np
1568 389 PD
gr

gs 1495 316 147 147 MR c np
  36   36 1568  389 FO
gr

gs 899 389 5357 4227 MR c np
383 -704 1281 3206 2 MP stroke
gs 1208 2429 530 851 MR c np
  36   36 1281 3206 FO
  36   36 1664 2502 FO
gr

1122 2502 PD
gs 1049 2429 147 147 MR c np
  36   36 1122 2502 FO
gr

1154 389 PD
gr

gs 1081 316 147 147 MR c np
  36   36 1154  389 FO
gr

gs 899 389 5357 4227 MR c np
3577 2502 PD
gs 3504 2429 147 147 MR c np
  36   36 3577 2502 FO
gr

24 -705 922 2502 2 MP stroke
gr

gs 849 1724 171 852 MR c np
  36   36  922 2502 FO
  36   36  946 1797 FO
gr

gs 899 389 5357 4227 MR c np
957 389 PD
gr

gs 884 316 147 147 MR c np
  36   36  957  389 FO
gr

gs 899 389 5357 4227 MR c np
992 389 PD
gr

gs 919 316 147 147 MR c np
  36   36  992  389 FO
gr

gs 899 389 5357 4227 MR c np
2238 2502 PD
gs 2165 2429 147 147 MR c np
  36   36 2238 2502 FO
gr

1568 389 PD
gr

gs 1495 316 147 147 MR c np
  36   36 1568  389 FO
gr

gs 899 389 5357 4227 MR c np
1385 2502 PD
gs 1312 2429 147 147 MR c np
  36   36 1385 2502 FO
gr

962 389 PD
gr

gs 889 316 147 147 MR c np
  36   36  962  389 FO
gr

gs 899 389 5357 4227 MR c np
967 389 PD
gr

gs 894 316 147 147 MR c np
  36   36  967  389 FO
gr

gs 899 389 5357 4227 MR c np
926 389 PD
gr

gs 853 316 147 147 MR c np
  36   36  926  389 FO
gr

gs 899 389 5357 4227 MR c np
1052 389 PD
gr

gs 979 316 147 147 MR c np
  36   36 1052  389 FO
gr

gs 899 389 5357 4227 MR c np
964 3206 PD
gr

gs 891 3133 147 147 MR c np
  36   36  964 3206 FO
gr

gs 899 389 5357 4227 MR c np
1036 2502 PD
gs 963 2429 147 147 MR c np
  36   36 1036 2502 FO
gr

998 2502 PD
gs 925 2429 147 147 MR c np
  36   36  998 2502 FO
gr

1233 389 PD
gr

gs 1160 316 147 147 MR c np
  36   36 1233  389 FO
gr

gs 899 389 5357 4227 MR c np
947 389 PD
gr

gs 874 316 147 147 MR c np
  36   36  947  389 FO
gr

gs 899 389 5357 4227 MR c np
2238 4192 PD
gs 2165 4119 147 147 MR c np
  36   36 2238 4192 FO
gr

1039 3206 PD
gs 966 3133 147 147 MR c np
  36   36 1039 3206 FO
gr

1006 389 PD
gr

gs 933 316 147 147 MR c np
  36   36 1006  389 FO
gr

gs 899 389 5357 4227 MR c np
1970 2502 PD
gs 1897 2429 147 147 MR c np
  36   36 1970 2502 FO
gr

934 389 PD
gr

gs 861 316 147 147 MR c np
  36   36  934  389 FO
gr

gs 899 389 5357 4227 MR c np
959 389 PD
gr

gs 886 316 147 147 MR c np
  36   36  959  389 FO
gr

gs 899 389 5357 4227 MR c np
1029 3206 PD
gs 956 3133 147 147 MR c np
  36   36 1029 3206 FO
gr

1166 3769 PD
gs 1093 3696 147 147 MR c np
  36   36 1166 3769 FO
gr

935 2502 PD
gr

gs 862 2429 147 147 MR c np
  36   36  935 2502 FO
gr

gs 899 389 5357 4227 MR c np
101 0 101 0 1000 389 3 MP stroke
gr

gs 927 316 349 147 MR c np
  36   36 1000  389 FO
  36   36 1101  389 FO
  36   36 1202  389 FO
gr

gs 899 389 5357 4227 MR c np
955 389 PD
gr

gs 882 316 147 147 MR c np
  36   36  955  389 FO
gr

gs 899 389 5357 4227 MR c np
980 389 PD
gr

gs 907 316 147 147 MR c np
  36   36  980  389 FO
gr

gs 899 389 5357 4227 MR c np
1018 389 PD
gr

gs 945 316 147 147 MR c np
  36   36 1018  389 FO
gr

gs 899 389 5357 4227 MR c np
1047 4262 PD
gs 974 4189 147 147 MR c np
  36   36 1047 4262 FO
gr

919 389 PD
gr

gs 846 316 147 147 MR c np
  36   36  919  389 FO
gr

gs 899 389 5357 4227 MR c np
981 2502 PD
gs 908 2429 147 147 MR c np
  36   36  981 2502 FO
gr

1012 389 PD
gr

gs 939 316 147 147 MR c np
  36   36 1012  389 FO
gr

gs 899 389 5357 4227 MR c np
1664 2502 PD
gs 1591 2429 147 147 MR c np
  36   36 1664 2502 FO
gr

961 2502 PD
gr

gs 888 2429 147 147 MR c np
  36   36  961 2502 FO
gr

gs 899 389 5357 4227 MR c np
37 0 935 389 2 MP stroke
gr

gs 862 316 184 147 MR c np
  36   36  935  389 FO
  36   36  972  389 FO
gr

gs 899 389 5357 4227 MR c np
945 2502 PD
gr

gs 872 2429 147 147 MR c np
  36   36  945 2502 FO
gr

gs 899 389 5357 4227 MR c np
924 2502 PD
gr

gs 851 2429 147 147 MR c np
  36   36  924 2502 FO
gr

gs 899 389 5357 4227 MR c np
1012 389 PD
gr

gs 939 316 147 147 MR c np
  36   36 1012  389 FO
gr

gs 899 389 5357 4227 MR c np
1018 2502 PD
gs 945 2429 147 147 MR c np
  36   36 1018 2502 FO
gr

1061 2502 PD
gs 988 2429 147 147 MR c np
  36   36 1061 2502 FO
gr

964 389 PD
gr

gs 891 316 147 147 MR c np
  36   36  964  389 FO
gr

gs 899 389 5357 4227 MR c np
1568 389 PD
gr

gs 1495 316 147 147 MR c np
  36   36 1568  389 FO
gr

gs 899 389 5357 4227 MR c np
924 389 PD
gr

gs 851 316 147 147 MR c np
  36   36  924  389 FO
gr

gs 899 389 5357 4227 MR c np
1385 389 PD
gr

gs 1312 316 147 147 MR c np
  36   36 1385  389 FO
gr

gs 899 389 5357 4227 MR c np
934 389 PD
gr

gs 861 316 147 147 MR c np
  36   36  934  389 FO
gr

gs 899 389 5357 4227 MR c np
38 0 937 389 2 MP stroke
gr

gs 864 316 185 147 MR c np
  36   36  937  389 FO
  36   36  975  389 FO
gr

gs 899 389 5357 4227 MR c np
335 2535 1233 389 2 MP stroke
gr

gs 1160 316 482 2682 MR c np
  36   36 1233  389 FO
  36   36 1568 2924 FO
gr

gs 899 389 5357 4227 MR c np
922 389 PD
gr

gs 849 316 147 147 MR c np
  36   36  922  389 FO
gr

gs 899 389 5357 4227 MR c np
96 0 994 389 2 MP stroke
gr

gs 921 316 243 147 MR c np
  36   36  994  389 FO
  36   36 1090  389 FO
gr

gs 899 389 5357 4227 MR c np
3577 389 PD
gr

gs 3504 316 147 147 MR c np
  36   36 3577  389 FO
gr

gs 899 389 5357 4227 MR c np
1090 389 PD
gr

gs 1017 316 147 147 MR c np
  36   36 1090  389 FO
gr

gs 899 389 5357 4227 MR c np
989 389 PD
gr

gs 916 316 147 147 MR c np
  36   36  989  389 FO
gr

gs 899 389 5357 4227 MR c np
972 2502 PD
gs 899 2429 147 147 MR c np
  36   36  972 2502 FO
gr

22 1408 920 389 2 MP stroke
gr

gs 847 316 169 1555 MR c np
  36   36  920  389 FO
  36   36  942 1797 FO
gr

gs 899 389 5357 4227 MR c np
944 2502 PD
gr

gs 871 2429 147 147 MR c np
  36   36  944 2502 FO
gr

gs 899 389 5357 4227 MR c np
944 389 PD
gr

gs 871 316 147 147 MR c np
  36   36  944  389 FO
gr

gs 899 389 5357 4227 MR c np
75 1408 974 389 2 MP stroke
gr

gs 901 316 222 1555 MR c np
  36   36  974  389 FO
  36   36 1049 1797 FO
gr

gs 899 389 5357 4227 MR c np
1097 3206 PD
gs 1024 3133 147 147 MR c np
  36   36 1097 3206 FO
gr

1494 3206 PD
gs 1421 3133 147 147 MR c np
  36   36 1494 3206 FO
gr

922 389 PD
gr

gs 849 316 147 147 MR c np
  36   36  922  389 FO
gr

gs 899 389 5357 4227 MR c np
48 0 48 0 48 0 946 389 4 MP stroke
gr

gs 873 316 291 147 MR c np
  36   36  946  389 FO
  36   36  994  389 FO
  36   36 1042  389 FO
  36   36 1090  389 FO
gr

gs 899 389 5357 4227 MR c np
1036 389 PD
gr

gs 963 316 147 147 MR c np
  36   36 1036  389 FO
gr

gs 899 389 5357 4227 MR c np
926 2502 PD
gr

gs 853 2429 147 147 MR c np
  36   36  926 2502 FO
gr

gs 899 389 5357 4227 MR c np
915 389 PD
gr

gs 842 316 147 147 MR c np
  36   36  915  389 FO
gr

gs 899 389 5357 4227 MR c np
3577 389 PD
gr

gs 3504 316 147 147 MR c np
  36   36 3577  389 FO
gr

gs 899 389 5357 4227 MR c np
105 1408 1004 389 2 MP stroke
gr

gs 931 316 252 1555 MR c np
  36   36 1004  389 FO
  36   36 1109 1797 FO
gr

gs 899 389 5357 4227 MR c np
1018 2502 PD
gs 945 2429 147 147 MR c np
  36   36 1018 2502 FO
gr

56 0 955 389 2 MP stroke
gr

gs 882 316 203 147 MR c np
  36   36  955  389 FO
  36   36 1011  389 FO
gr

gs 899 389 5357 4227 MR c np
1026 389 PD
gr

gs 953 316 147 147 MR c np
  36   36 1026  389 FO
gr

gs 899 389 5357 4227 MR c np
2684 2502 PD
gs 2611 2429 147 147 MR c np
  36   36 2684 2502 FO
gr

1434 3558 PD
gs 1361 3485 147 147 MR c np
  36   36 1434 3558 FO
gr

1166 3206 PD
gs 1093 3133 147 147 MR c np
  36   36 1166 3206 FO
gr

978 2502 PD
gs 905 2429 147 147 MR c np
  36   36  978 2502 FO
gr

1166 3558 PD
gs 1093 3485 147 147 MR c np
  36   36 1166 3558 FO
gr

1385 389 PD
gr

gs 1312 316 147 147 MR c np
  36   36 1385  389 FO
gr

gs 899 389 5357 4227 MR c np
1056 2502 PD
gs 983 2429 147 147 MR c np
  36   36 1056 2502 FO
gr

1020 3558 PD
gs 947 3485 147 147 MR c np
  36   36 1020 3558 FO
gr

1664 389 PD
gr

gs 1591 316 147 147 MR c np
  36   36 1664  389 FO
gr

gs 899 389 5357 4227 MR c np
16 0 16 0 915 389 3 MP stroke
gr

gs 842 316 179 147 MR c np
  36   36  915  389 FO
  36   36  931  389 FO
  36   36  947  389 FO
gr

gs 899 389 5357 4227 MR c np
941 389 PD
gr

gs 868 316 147 147 MR c np
  36   36  941  389 FO
gr

gs 899 389 5357 4227 MR c np
949 2502 PD
gr

gs 876 2429 147 147 MR c np
  36   36  949 2502 FO
gr

gs 899 389 5357 4227 MR c np
953 389 PD
gr

gs 880 316 147 147 MR c np
  36   36  953  389 FO
gr

gs 899 389 5357 4227 MR c np
1043 4380 PD
gs 970 4307 147 147 MR c np
  36   36 1043 4380 FO
gr

1032 389 PD
gr

gs 959 316 147 147 MR c np
  36   36 1032  389 FO
gr

gs 899 389 5357 4227 MR c np
1131 389 PD
gr

gs 1058 316 147 147 MR c np
  36   36 1131  389 FO
gr

gs 899 389 5357 4227 MR c np
933 389 PD
gr

gs 860 316 147 147 MR c np
  36   36  933  389 FO
gr

gs 899 389 5357 4227 MR c np
1077 3558 PD
gs 1004 3485 147 147 MR c np
  36   36 1077 3558 FO
gr

1000 389 PD
gr

gs 927 316 147 147 MR c np
  36   36 1000  389 FO
gr

gs 899 389 5357 4227 MR c np
1047 389 PD
gr

gs 974 316 147 147 MR c np
  36   36 1047  389 FO
gr

gs 899 389 5357 4227 MR c np
1142 2502 PD
gs 1069 2429 147 147 MR c np
  36   36 1142 2502 FO
gr

1196 389 PD
gr

gs 1123 316 147 147 MR c np
  36   36 1196  389 FO
gr

gs 899 389 5357 4227 MR c np
36 1408 935 389 2 MP stroke
gr

gs 862 316 183 1555 MR c np
  36   36  935  389 FO
  36   36  971 1797 FO
gr

gs 899 389 5357 4227 MR c np
991 389 PD
gr

gs 918 316 147 147 MR c np
  36   36  991  389 FO
gr

gs 899 389 5357 4227 MR c np
989 389 PD
gr

gs 916 316 147 147 MR c np
  36   36  989  389 FO
gr

gs 899 389 5357 4227 MR c np
962 3558 PD
gr

gs 889 3485 147 147 MR c np
  36   36  962 3558 FO
gr

gs 899 389 5357 4227 MR c np
1568 389 PD
gr

gs 1495 316 147 147 MR c np
  36   36 1568  389 FO
gr

gs 899 389 5357 4227 MR c np
941 2502 PD
gr

gs 868 2429 147 147 MR c np
  36   36  941 2502 FO
gr

gs 899 389 5357 4227 MR c np
1233 389 PD
gr

gs 1160 316 147 147 MR c np
  36   36 1233  389 FO
gr

gs 899 389 5357 4227 MR c np
991 389 PD
gr

gs 918 316 147 147 MR c np
  36   36  991  389 FO
gr

gs 899 389 5357 4227 MR c np
1077 2502 PD
gs 1004 2429 147 147 MR c np
  36   36 1077 2502 FO
gr

920 389 PD
gr

gs 847 316 147 147 MR c np
  36   36  920  389 FO
gr

gs 899 389 5357 4227 MR c np
37 201 935 3206 2 MP stroke
gr

gs 862 3133 184 348 MR c np
  36   36  935 3206 FO
  36   36  972 3407 FO
gr

gs 899 389 5357 4227 MR c np
1004 2502 PD
gs 931 2429 147 147 MR c np
  36   36 1004 2502 FO
gr

1791 3206 PD
gs 1718 3133 147 147 MR c np
  36   36 1791 3206 FO
gr

1056 389 PD
gr

gs 983 316 147 147 MR c np
  36   36 1056  389 FO
gr

gs 899 389 5357 4227 MR c np
1036 3558 PD
gs 963 3485 147 147 MR c np
  36   36 1036 3558 FO
gr

924 389 PD
gr

gs 851 316 147 147 MR c np
  36   36  924  389 FO
gr

gs 899 389 5357 4227 MR c np
1097 389 PD
gr

gs 1024 316 147 147 MR c np
  36   36 1097  389 FO
gr

gs 899 389 5357 4227 MR c np
1180 389 PD
gr

gs 1107 316 147 147 MR c np
  36   36 1180  389 FO
gr

gs 899 389 5357 4227 MR c np
1166 3206 PD
gs 1093 3133 147 147 MR c np
  36   36 1166 3206 FO
gr

933 389 PD
gr

gs 860 316 147 147 MR c np
  36   36  933  389 FO
gr

gs 899 389 5357 4227 MR c np
947 389 PD
gr

gs 874 316 147 147 MR c np
  36   36  947  389 FO
gr

gs 899 389 5357 4227 MR c np
1083 389 PD
gr

gs 1010 316 147 147 MR c np
  36   36 1083  389 FO
gr

gs 899 389 5357 4227 MR c np
1052 389 PD
gr

gs 979 316 147 147 MR c np
  36   36 1052  389 FO
gr

gs 899 389 5357 4227 MR c np
938 2502 PD
gr

gs 865 2429 147 147 MR c np
  36   36  938 2502 FO
gr

gs 899 389 5357 4227 MR c np
996 389 PD
gr

gs 923 316 147 147 MR c np
  36   36  996  389 FO
gr

gs 899 389 5357 4227 MR c np
936 2502 PD
gr

gs 863 2429 147 147 MR c np
  36   36  936 2502 FO
gr

gs 899 389 5357 4227 MR c np
964 2502 PD
gr

gs 891 2429 147 147 MR c np
  36   36  964 2502 FO
gr

gs 899 389 5357 4227 MR c np
1142 3769 PD
gs 1069 3696 147 147 MR c np
  36   36 1142 3769 FO
gr

51 -352 51 -352 950 3910 3 MP stroke
gr

gs 877 3133 249 851 MR c np
  36   36  950 3910 FO
  36   36 1001 3558 FO
  36   36 1052 3206 FO
gr

gs 899 389 5357 4227 MR c np
3577 389 PD
gr

gs 3504 316 147 147 MR c np
  36   36 3577  389 FO
gr

gs 899 389 5357 4227 MR c np
967 3769 PD
gr

gs 894 3696 147 147 MR c np
  36   36  967 3769 FO
gr

gs 899 389 5357 4227 MR c np
924 2502 PD
gr

gs 851 2429 147 147 MR c np
  36   36  924 2502 FO
gr

gs 899 389 5357 4227 MR c np
1494 389 PD
gr

gs 1421 316 147 147 MR c np
  36   36 1494  389 FO
gr

gs 899 389 5357 4227 MR c np
3577 2502 PD
gs 3504 2429 147 147 MR c np
  36   36 3577 2502 FO
gr

938 389 PD
gr

gs 865 316 147 147 MR c np
  36   36  938  389 FO
gr

gs 899 389 5357 4227 MR c np
1791 389 PD
gr

gs 1718 316 147 147 MR c np
  36   36 1791  389 FO
gr

gs 899 389 5357 4227 MR c np
1180 389 PD
gr

gs 1107 316 147 147 MR c np
  36   36 1180  389 FO
gr

gs 899 389 5357 4227 MR c np
66 0 965 389 2 MP stroke
gr

gs 892 316 213 147 MR c np
  36   36  965  389 FO
  36   36 1031  389 FO
gr

gs 899 389 5357 4227 MR c np
1032 3206 PD
gs 959 3133 147 147 MR c np
  36   36 1032 3206 FO
gr

536 1799 1434 2502 2 MP stroke
gs 1361 2429 683 1946 MR c np
  36   36 1434 2502 FO
  36   36 1970 4301 FO
gr

976 3206 PD
gs 903 3133 147 147 MR c np
  36   36  976 3206 FO
gr

36 1408 934 389 2 MP stroke
gr

gs 861 316 183 1555 MR c np
  36   36  934  389 FO
  36   36  970 1797 FO
gr

gs 899 389 5357 4227 MR c np
70 2113 969 389 2 MP stroke
gr

gs 896 316 217 2260 MR c np
  36   36  969  389 FO
  36   36 1039 2502 FO
gr

gs 899 389 5357 4227 MR c np
24 0 923 389 2 MP stroke
gr

gs 850 316 171 147 MR c np
  36   36  923  389 FO
  36   36  947  389 FO
gr

gs 899 389 5357 4227 MR c np
1214 389 PD
gr

gs 1141 316 147 147 MR c np
  36   36 1214  389 FO
gr

gs 899 389 5357 4227 MR c np
1385 389 PD
gr

gs 1312 316 147 147 MR c np
  36   36 1385  389 FO
gr

gs 899 389 5357 4227 MR c np
1791 4011 PD
gs 1718 3938 147 147 MR c np
  36   36 1791 4011 FO
gr

925 389 PD
gr

gs 852 316 147 147 MR c np
  36   36  925  389 FO
gr

gs 899 389 5357 4227 MR c np
1023 389 PD
gr

gs 950 316 147 147 MR c np
  36   36 1023  389 FO
gr

gs 899 389 5357 4227 MR c np
47 0 946 389 2 MP stroke
gr

gs 873 316 194 147 MR c np
  36   36  946  389 FO
  36   36  993  389 FO
gr

gs 899 389 5357 4227 MR c np
85 34 85 117 984 3558 3 MP stroke
gs 911 3485 317 298 MR c np
  36   36  984 3558 FO
  36   36 1069 3675 FO
  36   36 1154 3709 FO
gr

2238 389 PD
gr

gs 2165 316 147 147 MR c np
  36   36 2238  389 FO
gr

gs 899 389 5357 4227 MR c np
105 1408 1004 389 2 MP stroke
gr

gs 931 316 252 1555 MR c np
  36   36 1004  389 FO
  36   36 1109 1797 FO
gr

gs 899 389 5357 4227 MR c np
1385 389 PD
gr

gs 1312 316 147 147 MR c np
  36   36 1385  389 FO
gr

gs 899 389 5357 4227 MR c np
16 -705 915 2502 2 MP stroke
gr

gs 842 1724 163 852 MR c np
  36   36  915 2502 FO
  36   36  931 1797 FO
gr

gs 899 389 5357 4227 MR c np
986 389 PD
gr

gs 913 316 147 147 MR c np
  36   36  986  389 FO
gr

gs 899 389 5357 4227 MR c np
996 3206 PD
gs 923 3133 147 147 MR c np
  36   36  996 3206 FO
gr

919 389 PD
gr

gs 846 316 147 147 MR c np
  36   36  919  389 FO
gr

gs 899 389 5357 4227 MR c np
938 389 PD
gr

gs 865 316 147 147 MR c np
  36   36  938  389 FO
gr

gs 899 389 5357 4227 MR c np
986 389 PD
gr

gs 913 316 147 147 MR c np
  36   36  986  389 FO
gr

gs 899 389 5357 4227 MR c np
50 1690 51 0 949 389 3 MP stroke
gr

gs 876 316 248 1837 MR c np
  36   36  949  389 FO
  36   36 1000  389 FO
  36   36 1050 2079 FO
gr

gs 899 389 5357 4227 MR c np
963 389 PD
gr

gs 890 316 147 147 MR c np
  36   36  963  389 FO
gr

gs 899 389 5357 4227 MR c np
1385 3206 PD
gs 1312 3133 147 147 MR c np
  36   36 1385 3206 FO
gr

2684 389 PD
gr

gs 2611 316 147 147 MR c np
  36   36 2684  389 FO
gr

gs 899 389 5357 4227 MR c np
946 389 PD
gr

gs 873 316 147 147 MR c np
  36   36  946  389 FO
gr

gs 899 389 5357 4227 MR c np
1131 4011 PD
gs 1058 3938 147 147 MR c np
  36   36 1131 4011 FO
gr

1002 4086 PD
gs 929 4013 147 147 MR c np
  36   36 1002 4086 FO
gr

1032 389 PD
gr

gs 959 316 147 147 MR c np
  36   36 1032  389 FO
gr

gs 899 389 5357 4227 MR c np
1664 389 PD
gr

gs 1591 316 147 147 MR c np
  36   36 1664  389 FO
gr

gs 899 389 5357 4227 MR c np
1066 389 PD
gr

gs 993 316 147 147 MR c np
  36   36 1066  389 FO
gr

gs 899 389 5357 4227 MR c np
1043 389 PD
gr

gs 970 316 147 147 MR c np
  36   36 1043  389 FO
gr

gs 899 389 5357 4227 MR c np
1002 389 PD
gr

gs 929 316 147 147 MR c np
  36   36 1002  389 FO
gr

gs 899 389 5357 4227 MR c np
923 3206 PD
gr

gs 850 3133 147 147 MR c np
  36   36  923 3206 FO
gr

gs 899 389 5357 4227 MR c np
1345 2502 PD
gs 1272 2429 147 147 MR c np
  36   36 1345 2502 FO
gr

167 352 1066 3206 2 MP stroke
gs 993 3133 314 499 MR c np
  36   36 1066 3206 FO
  36   36 1233 3558 FO
gr

975 2502 PD
gs 902 2429 147 147 MR c np
  36   36  975 2502 FO
gr

1664 389 PD
gr

gs 1591 316 147 147 MR c np
  36   36 1664  389 FO
gr

gs 899 389 5357 4227 MR c np
970 389 PD
gr

gs 897 316 147 147 MR c np
  36   36  970  389 FO
gr

gs 899 389 5357 4227 MR c np
934 3769 PD
gr

gs 861 3696 147 147 MR c np
  36   36  934 3769 FO
gr

gs 899 389 5357 4227 MR c np
1006 3558 PD
gs 933 3485 147 147 MR c np
  36   36 1006 3558 FO
gr

65 0 964 389 2 MP stroke
gr

gs 891 316 212 147 MR c np
  36   36  964  389 FO
  36   36 1029  389 FO
gr

gs 899 389 5357 4227 MR c np
994 2502 PD
gs 921 2429 147 147 MR c np
  36   36  994 2502 FO
gr

954 389 PD
gr

gs 881 316 147 147 MR c np
  36   36  954  389 FO
gr

gs 899 389 5357 4227 MR c np
1385 389 PD
gr

gs 1312 316 147 147 MR c np
  36   36 1385  389 FO
gr

gs 899 389 5357 4227 MR c np
1281 389 PD
gr

gs 1208 316 147 147 MR c np
  36   36 1281  389 FO
gr

gs 899 389 5357 4227 MR c np
2684 3206 PD
gs 2611 3133 147 147 MR c np
  36   36 2684 3206 FO
gr

1664 2502 PD
gs 1591 2429 147 147 MR c np
  36   36 1664 2502 FO
gr

1154 389 PD
gr

gs 1081 316 147 147 MR c np
  36   36 1154  389 FO
gr

gs 899 389 5357 4227 MR c np
1000 3206 PD
gs 927 3133 147 147 MR c np
  36   36 1000 3206 FO
gr

1154 2502 PD
gs 1081 2429 147 147 MR c np
  36   36 1154 2502 FO
gr

998 389 PD
gr

gs 925 316 147 147 MR c np
  36   36  998  389 FO
gr

gs 899 389 5357 4227 MR c np
141 -634 1039 3558 2 MP stroke
gs 966 2851 288 781 MR c np
  36   36 1039 3558 FO
  36   36 1180 2924 FO
gr

1047 3206 PD
gs 974 3133 147 147 MR c np
  36   36 1047 3206 FO
gr

910 389 PD
gr

gs 837 316 147 147 MR c np
  36   36  910  389 FO
gr

gs 899 389 5357 4227 MR c np
919 3206 PD
gr

gs 846 3133 147 147 MR c np
  36   36  919 3206 FO
gr

gs 899 389 5357 4227 MR c np
986 2502 PD
gs 913 2429 147 147 MR c np
  36   36  986 2502 FO
gr

1791 389 PD
gr

gs 1718 316 147 147 MR c np
  36   36 1791  389 FO
gr

gs 899 389 5357 4227 MR c np
948 389 PD
gr

gs 875 316 147 147 MR c np
  36   36  948  389 FO
gr

gs 899 389 5357 4227 MR c np
1166 2502 PD
gs 1093 2429 147 147 MR c np
  36   36 1166 2502 FO
gr

919 4366 PD
gr

gs 846 4293 147 147 MR c np
  36   36  919 4366 FO
gr

gs 899 389 5357 4227 MR c np
39 -282 938 3206 2 MP stroke
gr

gs 865 2851 186 429 MR c np
  36   36  938 3206 FO
  36   36  977 2924 FO
gr

gs 899 389 5357 4227 MR c np
988 3558 PD
gs 915 3485 147 147 MR c np
  36   36  988 3558 FO
gr

21 0 920 389 2 MP stroke
gr

gs 847 316 168 147 MR c np
  36   36  920  389 FO
  36   36  941  389 FO
gr

gs 899 389 5357 4227 MR c np
1008 4313 PD
gs 935 4240 147 147 MR c np
  36   36 1008 4313 FO
gr

1105 3206 PD
gs 1032 3133 147 147 MR c np
  36   36 1105 3206 FO
gr

2684 3206 PD
gs 2611 3133 147 147 MR c np
  36   36 2684 3206 FO
gr

1154 389 PD
gr

gs 1081 316 147 147 MR c np
  36   36 1154  389 FO
gr

gs 899 389 5357 4227 MR c np
2238 389 PD
gr

gs 2165 316 147 147 MR c np
  36   36 2238  389 FO
gr

gs 899 389 5357 4227 MR c np
1664 4474 PD
gs 1591 4401 147 147 MR c np
  36   36 1664 4474 FO
gr

1083 389 PD
gr

gs 1010 316 147 147 MR c np
  36   36 1083  389 FO
gr

gs 899 389 5357 4227 MR c np
1568 4333 PD
gs 1495 4260 147 147 MR c np
  36   36 1568 4333 FO
gr

941 389 PD
gr

gs 868 316 147 147 MR c np
  36   36  941  389 FO
gr

gs 899 389 5357 4227 MR c np
944 389 PD
gr

gs 871 316 147 147 MR c np
  36   36  944  389 FO
gr

gs 899 389 5357 4227 MR c np
6255 3206 PD
gr

gs 6182 3133 147 147 MR c np
  36   36 6255 3206 FO
gr

gs 899 389 5357 4227 MR c np
1083 389 PD
gr

gs 1010 316 147 147 MR c np
  36   36 1083  389 FO
gr

gs 899 389 5357 4227 MR c np
1026 2502 PD
gs 953 2429 147 147 MR c np
  36   36 1026 2502 FO
gr

1664 4431 PD
gs 1591 4358 147 147 MR c np
  36   36 1664 4431 FO
gr

1233 389 PD
gr

gs 1160 316 147 147 MR c np
  36   36 1233  389 FO
gr

gs 899 389 5357 4227 MR c np
938 389 PD
gr

gs 865 316 147 147 MR c np
  36   36  938  389 FO
gr

gs 899 389 5357 4227 MR c np
44 511 43 2414 44 0 942 389 4 MP stroke
gr

gs 869 316 278 3072 MR c np
  36   36  942  389 FO
  36   36  986  389 FO
  36   36 1029 2803 FO
  36   36 1073 3314 FO
gr

gs 899 389 5357 4227 MR c np
916 389 PD
gr

gs 843 316 147 147 MR c np
  36   36  916  389 FO
gr

gs 899 389 5357 4227 MR c np
1196 389 PD
gr

gs 1123 316 147 147 MR c np
  36   36 1196  389 FO
gr

gs 899 389 5357 4227 MR c np
925 389 PD
gr

gs 852 316 147 147 MR c np
  36   36  925  389 FO
gr

gs 899 389 5357 4227 MR c np
938 389 PD
gr

gs 865 316 147 147 MR c np
  36   36  938  389 FO
gr

gs 899 389 5357 4227 MR c np
1071 2502 PD
gs 998 2429 147 147 MR c np
  36   36 1071 2502 FO
gr

1166 2502 PD
gs 1093 2429 147 147 MR c np
  36   36 1166 2502 FO
gr

1180 3206 PD
gs 1107 3133 147 147 MR c np
  36   36 1180 3206 FO
gr

6255 389 PD
gr

gs 6182 316 147 147 MR c np
  36   36 6255  389 FO
gr

gs 899 389 5357 4227 MR c np
3 0 2 0 3 0 901 389 4 MP stroke
gr

gs 828 316 155 147 MR c np
  36   36  901  389 FO
  36   36  904  389 FO
  36   36  906  389 FO
  36   36  909  389 FO
gr

gs 899 389 5357 4227 MR c np
921 2502 PD
gr

gs 848 2429 147 147 MR c np
  36   36  921 2502 FO
gr

gs 899 389 5357 4227 MR c np
1166 2502 PD
gs 1093 2429 147 147 MR c np
  36   36 1166 2502 FO
gr

1036 389 PD
gr

gs 963 316 147 147 MR c np
  36   36 1036  389 FO
gr

gs 899 389 5357 4227 MR c np
954 389 PD
gr

gs 881 316 147 147 MR c np
  36   36  954  389 FO
gr

gs 899 389 5357 4227 MR c np
1154 389 PD
gr

gs 1081 316 147 147 MR c np
  36   36 1154  389 FO
gr

gs 899 389 5357 4227 MR c np
1791 3206 PD
gs 1718 3133 147 147 MR c np
  36   36 1791 3206 FO
gr

gr


end %%Color Dict

eplot
%%EndObject

epage
end

showpage

%%Trailer
%%EOF
