%!PS-Adobe-2.0 EPSF-1.2
%%Creator: MATLAB, The MathWorks, Inc. Version 7.13.0.564 (R2011b). Operating System: Linux 3.11.0-18-generic #32~precise1-Ubuntu SMP Thu Feb 20 17:52:10 UTC 2014 x86_64.
%%Title: ./eps/v7_gen0/dot.eps
%%CreationDate: 03/16/2014  03:30:28
%%DocumentNeededFonts: Helvetica
%%DocumentProcessColors: Cyan Magenta Yellow Black
%%Pages: 1
%%BoundingBox:    58   199   550   589
%%EndComments

%%BeginProlog
% MathWorks dictionary
/MathWorks 160 dict begin
% definition operators
/bdef {bind def} bind def
/ldef {load def} bind def
/xdef {exch def} bdef
/xstore {exch store} bdef
% operator abbreviations
/c  /clip ldef
/cc /concat ldef
/cp /closepath ldef
/gr /grestore ldef
/gs /gsave ldef
/mt /moveto ldef
/np /newpath ldef
/cm /currentmatrix ldef
/sm /setmatrix ldef
/rm /rmoveto ldef
/rl /rlineto ldef
/s {show newpath} bdef
/sc {setcmykcolor} bdef
/sr /setrgbcolor ldef
/sg /setgray ldef
/w /setlinewidth ldef
/j /setlinejoin ldef
/cap /setlinecap ldef
/rc {rectclip} bdef
/rf {rectfill} bdef
% page state control
/pgsv () def
/bpage {/pgsv save def} bdef
/epage {pgsv restore} bdef
/bplot /gsave ldef
/eplot {stroke grestore} bdef
% orientation switch
/portraitMode 0 def /landscapeMode 1 def /rotateMode 2 def
% coordinate system mappings
/dpi2point 0 def
% font control
/FontSize 0 def
/FMS {/FontSize xstore findfont [FontSize 0 0 FontSize neg 0 0]
  makefont setfont} bdef
/reencode {exch dup where {pop load} {pop StandardEncoding} ifelse
  exch dup 3 1 roll findfont dup length dict begin
  { 1 index /FID ne {def}{pop pop} ifelse } forall
  /Encoding exch def currentdict end definefont pop} bdef
/isroman {findfont /CharStrings get /Agrave known} bdef
/FMSR {3 1 roll 1 index dup isroman {reencode} {pop pop} ifelse
  exch FMS} bdef
/csm {1 dpi2point div -1 dpi2point div scale neg translate
 dup landscapeMode eq {pop -90 rotate}
  {rotateMode eq {90 rotate} if} ifelse} bdef
% line types: solid, dotted, dashed, dotdash
/SO { [] 0 setdash } bdef
/DO { [.5 dpi2point mul 4 dpi2point mul] 0 setdash } bdef
/DA { [6 dpi2point mul] 0 setdash } bdef
/DD { [.5 dpi2point mul 4 dpi2point mul 6 dpi2point mul 4
  dpi2point mul] 0 setdash } bdef
% macros for lines and objects
/L {lineto stroke} bdef
/MP {3 1 roll moveto 1 sub {rlineto} repeat} bdef
/AP {{rlineto} repeat} bdef
/PDlw -1 def
/W {/PDlw currentlinewidth def setlinewidth} def
/PP {closepath eofill} bdef
/DP {closepath stroke} bdef
/MR {4 -2 roll moveto dup  0 exch rlineto exch 0 rlineto
  neg 0 exch rlineto closepath} bdef
/FR {MR stroke} bdef
/PR {MR fill} bdef
/L1i {{currentfile picstr readhexstring pop} image} bdef
/tMatrix matrix def
/MakeOval {newpath tMatrix currentmatrix pop translate scale
0 0 1 0 360 arc tMatrix setmatrix} bdef
/FO {MakeOval stroke} bdef
/PO {MakeOval fill} bdef
/PD {currentlinewidth 2 div 0 360 arc fill
   PDlw -1 eq not {PDlw w /PDlw -1 def} if} def
/FA {newpath tMatrix currentmatrix pop translate scale
  0 0 1 5 -2 roll arc tMatrix setmatrix stroke} bdef
/PA {newpath tMatrix currentmatrix pop	translate 0 0 moveto scale
  0 0 1 5 -2 roll arc closepath tMatrix setmatrix fill} bdef
/FAn {newpath tMatrix currentmatrix pop translate scale
  0 0 1 5 -2 roll arcn tMatrix setmatrix stroke} bdef
/PAn {newpath tMatrix currentmatrix pop translate 0 0 moveto scale
  0 0 1 5 -2 roll arcn closepath tMatrix setmatrix fill} bdef
/vradius 0 def /hradius 0 def /lry 0 def
/lrx 0 def /uly 0 def /ulx 0 def /rad 0 def
/MRR {/vradius xdef /hradius xdef /lry xdef /lrx xdef /uly xdef
  /ulx xdef newpath tMatrix currentmatrix pop ulx hradius add uly
  vradius add translate hradius vradius scale 0 0 1 180 270 arc 
  tMatrix setmatrix lrx hradius sub uly vradius add translate
  hradius vradius scale 0 0 1 270 360 arc tMatrix setmatrix
  lrx hradius sub lry vradius sub translate hradius vradius scale
  0 0 1 0 90 arc tMatrix setmatrix ulx hradius add lry vradius sub
  translate hradius vradius scale 0 0 1 90 180 arc tMatrix setmatrix
  closepath} bdef
/FRR {MRR stroke } bdef
/PRR {MRR fill } bdef
/MlrRR {/lry xdef /lrx xdef /uly xdef /ulx xdef /rad lry uly sub 2 div def
  newpath tMatrix currentmatrix pop ulx rad add uly rad add translate
  rad rad scale 0 0 1 90 270 arc tMatrix setmatrix lrx rad sub lry rad
  sub translate rad rad scale 0 0 1 270 90 arc tMatrix setmatrix
  closepath} bdef
/FlrRR {MlrRR stroke } bdef
/PlrRR {MlrRR fill } bdef
/MtbRR {/lry xdef /lrx xdef /uly xdef /ulx xdef /rad lrx ulx sub 2 div def
  newpath tMatrix currentmatrix pop ulx rad add uly rad add translate
  rad rad scale 0 0 1 180 360 arc tMatrix setmatrix lrx rad sub lry rad
  sub translate rad rad scale 0 0 1 0 180 arc tMatrix setmatrix
  closepath} bdef
/FtbRR {MtbRR stroke } bdef
/PtbRR {MtbRR fill } bdef
/stri 6 array def /dtri 6 array def
/smat 6 array def /dmat 6 array def
/tmat1 6 array def /tmat2 6 array def /dif 3 array def
/asub {/ind2 exch def /ind1 exch def dup dup
  ind1 get exch ind2 get sub exch } bdef
/tri_to_matrix {
  2 0 asub 3 1 asub 4 0 asub 5 1 asub
  dup 0 get exch 1 get 7 -1 roll astore } bdef
/compute_transform {
  dmat dtri tri_to_matrix tmat1 invertmatrix 
  smat stri tri_to_matrix tmat2 concatmatrix } bdef
/ds {stri astore pop} bdef
/dt {dtri astore pop} bdef
/db {2 copy /cols xdef /rows xdef mul dup string
  currentfile exch readhexstring pop
  /bmap xdef pop pop} bdef
/it {gs np dtri aload pop moveto lineto lineto cp c
  cols rows 8 compute_transform 
  {bmap} image gr}bdef
/il {newpath moveto lineto stroke}bdef
currentdict end def
%%EndProlog

%%BeginSetup
MathWorks begin

0 cap

end
%%EndSetup

%%Page: 1 1
%%BeginPageSetup
%%PageBoundingBox:    58   199   550   589
MathWorks begin
bpage
%%EndPageSetup

%%BeginObject: obj1
bplot

/dpi2point 12 def
portraitMode 0216 7344 csm

  480   268  5907  4687 MR c np
85 dict begin %Colortable dictionary
/c0 { 0.000000 0.000000 0.000000 sr} bdef
/c1 { 1.000000 1.000000 1.000000 sr} bdef
/c2 { 0.900000 0.000000 0.000000 sr} bdef
/c3 { 0.000000 0.820000 0.000000 sr} bdef
/c4 { 0.000000 0.000000 0.800000 sr} bdef
/c5 { 0.910000 0.820000 0.320000 sr} bdef
/c6 { 1.000000 0.260000 0.820000 sr} bdef
/c7 { 0.000000 0.820000 0.820000 sr} bdef
c0
1 j
1 sg
   0    0 6913 5186 PR
6 w
0 4226 5356 0 0 -4226 899 4615 4 MP
PP
-5356 0 0 4226 5356 0 0 -4226 899 4615 5 MP stroke
4 w
DO
SO
6 w
0 sg
 899 4615 mt 6255 4615 L
 899 4615 mt  899  389 L
 899 4615 mt  899 4561 L
%%IncludeResource: font Helvetica
/Helvetica /ISOLatin1Encoding 120 FMSR

 866 4760 mt 
(0) s
1434 4615 mt 1434 4561 L
1318 4760 mt 
(0.05) s
1970 4615 mt 1970 4561 L
1887 4760 mt 
(0.1) s
2505 4615 mt 2505 4561 L
2389 4760 mt 
(0.15) s
3041 4615 mt 3041 4561 L
2958 4760 mt 
(0.2) s
3577 4615 mt 3577 4561 L
3461 4760 mt 
(0.25) s
4112 4615 mt 4112 4561 L
4029 4760 mt 
(0.3) s
4648 4615 mt 4648 4561 L
4532 4760 mt 
(0.35) s
5183 4615 mt 5183 4561 L
5100 4760 mt 
(0.4) s
5719 4615 mt 5719 4561 L
5603 4760 mt 
(0.45) s
6255 4615 mt 6255 4561 L
6172 4760 mt 
(0.5) s
 899 4615 mt  952 4615 L
 798 4659 mt 
(0) s
 899 4192 mt  952 4192 L
 698 4236 mt 
(0.1) s
 899 3769 mt  952 3769 L
 698 3813 mt 
(0.2) s
 899 3347 mt  952 3347 L
 698 3391 mt 
(0.3) s
 899 2924 mt  952 2924 L
 698 2968 mt 
(0.4) s
 899 2502 mt  952 2502 L
 698 2546 mt 
(0.5) s
 899 2079 mt  952 2079 L
 698 2123 mt 
(0.6) s
 899 1656 mt  952 1656 L
 698 1700 mt 
(0.7) s
 899 1234 mt  952 1234 L
 698 1278 mt 
(0.8) s
 899  811 mt  952  811 L
 698  855 mt 
(0.9) s
 899  389 mt  952  389 L
 798  433 mt 
(1) s
gs 899 389 5357 4227 MR c np
40 -12 938 4539 2 MP stroke
gr

gs 865 4454 187 159 MR c np
  36   36  938 4539 FO
  36   36  978 4527 FO
gr

gs 899 389 5357 4227 MR c np
6255 4555 PD
gr

gs 6182 4482 147 147 MR c np
  36   36 6255 4555 FO
gr

gs 899 389 5357 4227 MR c np
1327 4565 PD
gr

gs 1254 4492 147 147 MR c np
  36   36 1327 4565 FO
gr

gs 899 389 5357 4227 MR c np
1047 4539 PD
gs 974 4466 147 147 MR c np
  36   36 1047 4539 FO
gr

1105 4564 PD
gr

gs 1032 4491 147 147 MR c np
  36   36 1105 4564 FO
gr

gs 899 389 5357 4227 MR c np
52 -48 950 4536 2 MP stroke
gr

gs 877 4415 199 195 MR c np
  36   36  950 4536 FO
  36   36 1002 4488 FO
gr

gs 899 389 5357 4227 MR c np
973 4539 PD
gs 900 4466 147 147 MR c np
  36   36  973 4539 FO
gr

2238 4533 PD
gs 2165 4460 147 147 MR c np
  36   36 2238 4533 FO
gr

147 4033 1045 389 2 MP stroke
gr

gs 972 316 294 4180 MR c np
  36   36 1045  389 FO
  36   36 1192 4422 FO
gr

gs 899 389 5357 4227 MR c np
1022 4561 PD
gr

gs 949 4488 147 147 MR c np
  36   36 1022 4561 FO
gr

gs 899 389 5357 4227 MR c np
1032 4572 PD
gr

gs 959 4499 147 147 MR c np
  36   36 1032 4572 FO
gr

gs 899 389 5357 4227 MR c np
911 4500 PD
gr

gs 838 4427 147 147 MR c np
  36   36  911 4500 FO
gr

gs 899 389 5357 4227 MR c np
938 4544 PD
gr

gs 865 4471 147 147 MR c np
  36   36  938 4544 FO
gr

gs 899 389 5357 4227 MR c np
930 4469 PD
gr

gs 857 4396 147 147 MR c np
  36   36  930 4469 FO
gr

gs 899 389 5357 4227 MR c np
1080 4438 PD
gs 1007 4365 147 147 MR c np
  36   36 1080 4438 FO
gr

1007 4551 PD
gr

gs 934 4478 147 147 MR c np
  36   36 1007 4551 FO
gr

gs 899 389 5357 4227 MR c np
1054 4560 PD
gr

gs 981 4487 147 147 MR c np
  36   36 1054 4560 FO
gr

gs 899 389 5357 4227 MR c np
2429 4458 PD
gs 2356 4385 147 147 MR c np
  36   36 2429 4458 FO
gr

1462 4564 PD
gr

gs 1389 4491 147 147 MR c np
  36   36 1462 4564 FO
gr

gs 899 389 5357 4227 MR c np
932 4560 PD
gr

gs 859 4487 147 147 MR c np
  36   36  932 4560 FO
gr

gs 899 389 5357 4227 MR c np
48 1 48 187 946 4262 3 MP stroke
gr

gs 873 4189 243 335 MR c np
  36   36  946 4262 FO
  36   36  994 4449 FO
  36   36 1042 4450 FO
gr

gs 899 389 5357 4227 MR c np
984 4563 PD
gr

gs 911 4490 147 147 MR c np
  36   36  984 4563 FO
gr

gs 899 389 5357 4227 MR c np
930 4557 PD
gr

gs 857 4484 147 147 MR c np
  36   36  930 4557 FO
gr

gs 899 389 5357 4227 MR c np
1041 4509 PD
gs 968 4436 147 147 MR c np
  36   36 1041 4509 FO
gr

1166 4565 PD
gr

gs 1093 4492 147 147 MR c np
  36   36 1166 4565 FO
gr

gs 899 389 5357 4227 MR c np
2684 4556 PD
gr

gs 2611 4483 147 147 MR c np
  36   36 2684 4556 FO
gr

gs 899 389 5357 4227 MR c np
1664 4567 PD
gr

gs 1591 4494 147 147 MR c np
  36   36 1664 4567 FO
gr

gs 899 389 5357 4227 MR c np
1009 4539 PD
gs 936 4466 147 147 MR c np
  36   36 1009 4539 FO
gr

1028 4553 PD
gr

gs 955 4480 147 147 MR c np
  36   36 1028 4553 FO
gr

gs 899 389 5357 4227 MR c np
1032 4560 PD
gr

gs 959 4487 147 147 MR c np
  36   36 1032 4560 FO
gr

gs 899 389 5357 4227 MR c np
1080 4565 PD
gr

gs 1007 4492 147 147 MR c np
  36   36 1080 4565 FO
gr

gs 899 389 5357 4227 MR c np
45 -71 943 4535 2 MP stroke
gr

gs 870 4391 192 218 MR c np
  36   36  943 4535 FO
  36   36  988 4464 FO
gr

gs 899 389 5357 4227 MR c np
951 4539 PD
gr

gs 878 4466 147 147 MR c np
  36   36  951 4539 FO
gr

gs 899 389 5357 4227 MR c np
3041 4547 PD
gr

gs 2968 4474 147 147 MR c np
  36   36 3041 4547 FO
gr

gs 899 389 5357 4227 MR c np
1131 4469 PD
gs 1058 4396 147 147 MR c np
  36   36 1131 4469 FO
gr

943 4469 PD
gr

gs 870 4396 147 147 MR c np
  36   36  943 4469 FO
gr

gs 899 389 5357 4227 MR c np
1066 4568 PD
gr

gs 993 4495 147 147 MR c np
  36   36 1066 4568 FO
gr

gs 899 389 5357 4227 MR c np
16 -81 915 4494 2 MP stroke
gr

gs 842 4340 163 228 MR c np
  36   36  915 4494 FO
  36   36  931 4413 FO
gr

gs 899 389 5357 4227 MR c np
1105 4545 PD
gr

gs 1032 4472 147 147 MR c np
  36   36 1105 4545 FO
gr

gs 899 389 5357 4227 MR c np
1327 4564 PD
gr

gs 1254 4491 147 147 MR c np
  36   36 1327 4564 FO
gr

gs 899 389 5357 4227 MR c np
1434 4571 PD
gr

gs 1361 4498 147 147 MR c np
  36   36 1434 4571 FO
gr

gs 899 389 5357 4227 MR c np
1061 2502 PD
gs 988 2429 147 147 MR c np
  36   36 1061 2502 FO
gr

1011 4543 PD
gr

gs 938 4470 147 147 MR c np
  36   36 1011 4543 FO
gr

gs 899 389 5357 4227 MR c np
1345 4538 PD
gs 1272 4465 147 147 MR c np
  36   36 1345 4538 FO
gr

1031 4538 PD
gs 958 4465 147 147 MR c np
  36   36 1031 4538 FO
gr

1018 4563 PD
gr

gs 945 4490 147 147 MR c np
  36   36 1018 4563 FO
gr

gs 899 389 5357 4227 MR c np
976 4469 PD
gs 903 4396 147 147 MR c np
  36   36  976 4469 FO
gr

1058 4192 PD
gs 985 4119 147 147 MR c np
  36   36 1058 4192 FO
gr

1166 4561 PD
gr

gs 1093 4488 147 147 MR c np
  36   36 1166 4561 FO
gr

gs 899 389 5357 4227 MR c np
982 4546 PD
gr

gs 909 4473 147 147 MR c np
  36   36  982 4546 FO
gr

gs 899 389 5357 4227 MR c np
50 -51 949 4557 2 MP stroke
gr

gs 876 4433 197 198 MR c np
  36   36  949 4557 FO
  36   36  999 4506 FO
gr

gs 899 389 5357 4227 MR c np
103 -51 1002 4556 2 MP stroke
gr

gs 929 4432 250 198 MR c np
  36   36 1002 4556 FO
  36   36 1105 4505 FO
gr

gs 899 389 5357 4227 MR c np
1003 4514 PD
gs 930 4441 147 147 MR c np
  36   36 1003 4514 FO
gr

1083 4560 PD
gr

gs 1010 4487 147 147 MR c np
  36   36 1083 4560 FO
gr

gs 899 389 5357 4227 MR c np
173 -36 1071 4565 2 MP stroke
gr

gs 998 4456 320 183 MR c np
  36   36 1071 4565 FO
  36   36 1244 4529 FO
gr

gs 899 389 5357 4227 MR c np
1970 3910 PD
gs 1897 3837 147 147 MR c np
  36   36 1970 3910 FO
gr

934 4536 PD
gr

gs 861 4463 147 147 MR c np
  36   36  934 4536 FO
gr

gs 899 389 5357 4227 MR c np
1097 4528 PD
gs 1024 4455 147 147 MR c np
  36   36 1097 4528 FO
gr

1970 4559 PD
gr

gs 1897 4486 147 147 MR c np
  36   36 1970 4559 FO
gr

gs 899 389 5357 4227 MR c np
1462 4469 PD
gs 1389 4396 147 147 MR c np
  36   36 1462 4469 FO
gr

2684 4570 PD
gr

gs 2611 4497 147 147 MR c np
  36   36 2684 4570 FO
gr

gs 899 389 5357 4227 MR c np
970 4563 PD
gr

gs 897 4490 147 147 MR c np
  36   36  970 4563 FO
gr

gs 899 389 5357 4227 MR c np
75 -27 974 4538 2 MP stroke
gs 901 4438 222 174 MR c np
  36   36  974 4538 FO
  36   36 1049 4511 FO
gr

32 6 33 -55 32 108 931 4366 4 MP stroke
gr

gs 858 4293 244 255 MR c np
  36   36  931 4366 FO
  36   36  963 4474 FO
  36   36  996 4419 FO
  36   36 1028 4425 FO
gr

gs 899 389 5357 4227 MR c np
955 4500 PD
gr

gs 882 4427 147 147 MR c np
  36   36  955 4500 FO
gr

gs 899 389 5357 4227 MR c np
1214 4482 PD
gs 1141 4409 147 147 MR c np
  36   36 1214 4482 FO
gr

2089 4289 PD
gs 2016 4216 147 147 MR c np
  36   36 2089 4289 FO
gr

1052 4543 PD
gr

gs 979 4470 147 147 MR c np
  36   36 1052 4543 FO
gr

gs 899 389 5357 4227 MR c np
970 4548 PD
gr

gs 897 4475 147 147 MR c np
  36   36  970 4548 FO
gr

gs 899 389 5357 4227 MR c np
1047 4552 PD
gr

gs 974 4479 147 147 MR c np
  36   36 1047 4552 FO
gr

gs 899 389 5357 4227 MR c np
1038 4552 PD
gr

gs 965 4479 147 147 MR c np
  36   36 1038 4552 FO
gr

gs 899 389 5357 4227 MR c np
1097 4431 PD
gs 1024 4358 147 147 MR c np
  36   36 1097 4431 FO
gr

1268 4563 PD
gr

gs 1195 4490 147 147 MR c np
  36   36 1268 4563 FO
gr

gs 899 389 5357 4227 MR c np
1039 4564 PD
gr

gs 966 4491 147 147 MR c np
  36   36 1039 4564 FO
gr

gs 899 389 5357 4227 MR c np
966 4538 PD
gr

gs 893 4465 147 147 MR c np
  36   36  966 4538 FO
gr

gs 899 389 5357 4227 MR c np
941 4458 PD
gr

gs 868 4385 147 147 MR c np
  36   36  941 4458 FO
gr

gs 899 389 5357 4227 MR c np
1233 4543 PD
gr

gs 1160 4470 147 147 MR c np
  36   36 1233 4543 FO
gr

gs 899 389 5357 4227 MR c np
1113 4563 PD
gr

gs 1040 4490 147 147 MR c np
  36   36 1113 4563 FO
gr

gs 899 389 5357 4227 MR c np
915 4550 PD
gr

gs 842 4477 147 147 MR c np
  36   36  915 4550 FO
gr

gs 899 389 5357 4227 MR c np
3041 4555 PD
gr

gs 2968 4482 147 147 MR c np
  36   36 3041 4555 FO
gr

gs 899 389 5357 4227 MR c np
1434 4564 PD
gr

gs 1361 4491 147 147 MR c np
  36   36 1434 4564 FO
gr

gs 899 389 5357 4227 MR c np
1233 4509 PD
gs 1160 4436 147 147 MR c np
  36   36 1233 4509 FO
gr

1038 4557 PD
gr

gs 965 4484 147 147 MR c np
  36   36 1038 4557 FO
gr

gs 899 389 5357 4227 MR c np
1462 4545 PD
gr

gs 1389 4472 147 147 MR c np
  36   36 1462 4545 FO
gr

gs 899 389 5357 4227 MR c np
5 -36 5 30 5 0 5 1 5 -37 5 -3 5 -33 5 -55 
5 -22 5 -35 5 -41 5 -56 5 -29 5 -60 5 -101 5 362 
904 4011 17 MP stroke
gr

gs 831 3823 227 624 MR c np
  36   36  904 4011 FO
  36   36  909 4373 FO
  36   36  914 4272 FO
  36   36  919 4212 FO
  36   36  924 4183 FO
  36   36  929 4127 FO
  36   36  934 4086 FO
  36   36  939 4051 FO
  36   36  944 4029 FO
  36   36  949 3974 FO
  36   36  954 3941 FO
  36   36  959 3938 FO
  36   36  964 3901 FO
  36   36  969 3902 FO
  36   36  974 3902 FO
  36   36  979 3932 FO
  36   36  984 3896 FO
gr

gs 899 389 5357 4227 MR c np
978 4572 PD
gr

gs 905 4499 147 147 MR c np
  36   36  978 4572 FO
gr

gs 899 389 5357 4227 MR c np
gr

3409 4903 mt 
(Recall) s
 616 2750 mt  -90 rotate
(Precision) s
90 rotate

end %%Color Dict

eplot
%%EndObject

epage
end

showpage

%%Trailer
%%EOF
